income,Age,WorkclassSelfEmpInc,Edu,MarriedCS,WifeHusband,WhiteAsian,Male,CGInf
1,1,0,1,0,0,1,1,1
1,0,0,1,1,1,1,1,1
0,0,0,0,0,0,0,1,1
0,0,0,1,0,0,1,1,1
1,1,0,1,1,1,1,1,1
1,0,0,1,1,1,1,1,1
0,0,0,1,1,1,1,1,1
0,0,0,0,0,0,1,0,1
0,0,0,1,0,0,1,1,1
0,1,0,1,0,0,1,1,1
0,0,0,1,0,0,1,0,1
1,0,0,1,1,1,1,0,1
0,1,0,1,0,0,1,0,1
0,1,0,0,1,1,1,1,1
0,0,0,0,1,1,1,1,1
0,1,0,1,1,1,1,1,1
0,1,0,1,0,0,1,1,1
0,1,0,0,0,0,1,0,1
0,1,0,1,0,0,1,1,1
0,1,0,1,0,0,1,1,1
0,1,0,0,0,0,1,1,1
0,0,0,0,1,1,1,1,1
0,0,0,1,0,0,1,0,1
0,1,0,0,0,0,1,0,1
0,1,0,1,0,0,0,1,1
0,1,0,0,0,0,1,0,1
1,0,0,1,1,1,1,1,1
0,1,0,1,0,0,1,0,1
0,1,0,1,0,0,1,0,1
0,1,0,0,0,0,1,1,1
0,1,0,1,0,0,1,1,1
0,1,0,0,0,0,1,1,1
0,0,0,0,1,1,1,0,1
0,1,0,1,0,0,1,0,1
0,0,1,1,1,1,1,1,1
1,0,0,1,1,1,1,1,1
1,0,0,1,1,1,1,1,1
0,1,0,0,0,0,1,0,1
0,1,0,1,1,1,1,1,1
1,1,0,1,1,1,1,0,1
0,1,0,1,0,0,1,0,1
1,0,0,1,1,1,1,1,1
1,1,0,1,1,1,1,1,1
0,0,0,1,0,0,0,1,1
0,1,0,0,1,1,1,1,1
1,1,0,0,1,1,1,0,1
1,0,0,1,1,1,1,1,1
0,0,0,0,0,0,1,1,1
0,0,0,1,0,0,0,0,1
0,1,1,0,1,1,1,1,1
0,1,0,0,0,0,0,1,1
0,1,0,0,1,1,1,1,1
0,1,0,1,1,1,1,1,1
0,0,0,0,0,0,0,1,1
0,1,0,0,0,0,1,0,1
0,0,0,1,0,0,1,0,1
0,1,0,1,0,0,1,0,1
0,1,0,1,0,0,1,1,1
0,1,0,1,0,0,1,1,1
0,0,0,0,1,0,1,0,1
0,1,0,1,0,0,1,1,1
0,0,0,0,1,1,1,1,1
0,0,0,0,1,1,1,1,1
0,1,0,1,1,1,1,1,1
1,0,0,1,1,1,1,1,0
1,1,0,0,1,1,1,0,1
0,0,0,0,0,0,1,0,1
0,0,0,1,0,0,1,0,1
0,1,0,0,0,0,1,1,1
0,0,0,1,0,0,1,0,1
1,1,0,1,1,1,1,1,0
0,1,0,0,0,0,1,0,1
0,1,0,0,1,0,1,0,1
0,1,0,0,0,0,1,1,1
0,0,0,1,1,1,1,1,1
0,0,0,1,1,1,1,1,1
0,0,0,1,0,0,1,0,1
0,1,0,1,1,0,1,1,1
0,0,0,0,1,1,1,1,1
0,1,0,0,0,0,1,1,1
1,0,0,1,1,1,1,1,1
0,1,0,1,0,0,1,1,1
1,0,0,1,1,1,1,1,1
0,1,0,1,0,0,1,1,1
1,0,0,1,1,1,1,1,1
0,1,0,0,1,1,1,1,1
1,0,0,1,1,0,1,0,1
0,0,0,1,0,0,0,0,1
0,1,0,1,0,0,1,0,1
0,1,0,1,0,0,1,0,1
0,0,0,1,1,1,1,1,1
0,1,0,0,0,0,1,1,1
1,0,0,1,1,1,1,1,1
0,1,0,0,0,0,1,0,1
0,1,0,0,0,0,1,1,1
0,1,0,1,0,0,1,0,1
0,1,0,0,1,1,1,1,1
0,1,0,0,1,1,1,1,1
0,1,0,0,0,0,1,1,1
0,0,0,0,1,1,1,1,1
1,0,1,1,1,1,1,1,0
0,1,0,1,0,0,1,1,1
1,0,0,1,0,0,1,0,1
0,1,0,0,0,0,1,1,1
0,1,0,0,0,0,1,0,1
1,1,0,1,0,0,0,1,1
1,0,0,1,1,1,1,1,1
0,1,0,1,1,1,1,1,1
0,1,0,0,0,0,1,0,1
0,1,0,1,0,0,1,0,1
0,1,0,1,0,0,1,0,1
0,0,0,1,1,1,1,1,1
1,1,0,1,1,1,1,1,1
0,1,0,0,0,0,1,0,1
0,0,0,0,1,1,0,1,1
1,1,0,0,1,1,1,1,1
1,0,0,0,1,1,1,1,1
0,1,0,0,0,0,1,0,1
0,1,0,1,0,0,1,1,1
1,0,0,1,1,1,1,1,1
0,1,0,1,1,1,1,1,1
0,1,0,0,0,0,0,1,1
0,1,0,1,0,0,1,0,1
0,1,0,0,0,0,1,1,1
0,0,0,1,0,0,1,0,1
0,1,0,0,1,1,1,1,1
1,1,0,1,1,1,1,1,1
1,1,0,1,0,0,1,1,1
1,0,0,1,1,1,1,1,1
0,1,0,1,0,0,1,0,1
1,1,0,0,1,1,1,1,1
1,1,0,1,1,1,1,1,1
0,0,0,0,1,1,0,1,1
0,1,0,1,0,0,1,0,1
1,1,0,1,1,1,1,0,0
0,1,0,1,1,1,1,1,1
0,1,0,0,0,0,1,1,1
1,1,0,1,0,0,1,0,1
0,1,0,1,0,0,1,1,1
0,1,0,1,0,0,1,0,1
0,0,0,0,1,1,1,0,1
1,0,1,1,1,1,1,1,1
0,1,0,0,1,1,1,1,1
1,0,0,0,1,1,1,1,1
0,1,0,0,0,0,1,0,1
1,1,0,1,0,0,1,0,1
0,1,0,1,0,0,1,1,1
0,1,0,0,0,0,0,0,1
0,1,0,1,0,0,1,0,1
0,0,0,0,1,1,1,1,1
0,0,0,1,0,0,1,0,1
1,1,0,0,1,1,1,0,1
0,0,0,0,1,1,1,1,1
0,1,0,0,0,0,1,0,1
1,0,0,1,1,1,1,1,1
1,1,0,0,1,1,0,1,0
0,1,0,1,0,0,1,0,1
1,1,0,0,1,1,1,1,1
0,0,0,1,0,0,1,0,1
1,0,0,1,1,1,1,1,1
0,1,0,1,0,0,1,0,1
0,1,0,1,0,0,1,0,1
1,1,0,1,1,1,1,0,1
1,0,1,0,1,1,0,1,1
0,1,0,1,1,1,1,1,1
0,0,0,1,0,0,1,1,1
0,1,0,1,0,0,1,0,1
0,0,0,0,0,0,0,0,1
0,0,0,0,1,1,1,1,1
0,1,0,1,1,1,1,1,1
0,0,0,0,0,0,1,1,1
0,1,0,0,0,0,1,1,1
0,0,0,0,0,0,1,0,1
0,1,0,0,0,0,1,0,1
0,0,0,1,0,0,1,0,1
0,1,0,1,0,0,1,0,1
1,0,0,1,1,1,0,1,1
0,1,0,0,1,1,1,1,1
0,1,0,1,0,0,1,1,1
0,1,0,0,0,0,0,1,1
0,1,0,0,0,0,1,1,1
0,1,0,0,0,0,1,0,1
0,1,0,0,0,0,1,0,1
0,1,0,0,0,0,1,1,1
0,1,0,0,1,1,1,1,1
0,0,0,1,0,0,1,0,1
0,1,0,1,0,0,0,1,1
0,1,0,0,1,1,1,1,1
0,1,0,0,0,0,1,0,1
0,1,0,1,1,1,1,0,1
0,1,0,1,0,0,0,1,1
1,0,1,1,1,1,1,1,0
0,1,0,0,0,0,1,1,1
0,1,0,0,0,0,1,1,1
0,1,0,0,1,1,1,0,1
1,1,1,1,1,1,1,1,0
0,1,0,1,0,0,1,1,1
0,1,0,1,0,0,1,1,1
0,0,0,0,0,0,1,0,1
0,1,0,0,1,1,0,0,1
0,1,0,0,0,0,0,0,1
0,1,0,0,1,1,1,1,1
1,1,0,0,1,1,1,0,1
0,1,0,1,0,0,1,1,1
0,0,0,0,1,1,1,1,1
0,1,0,1,0,0,1,1,1
0,1,0,1,0,0,1,0,1
0,0,0,0,0,0,1,0,1
0,0,0,0,1,1,1,1,1
0,1,0,0,0,0,1,1,1
0,0,0,1,0,0,1,0,1
0,0,0,0,0,0,1,0,1
1,1,0,1,1,1,1,1,1
1,0,0,1,0,0,1,0,1
1,1,0,0,1,1,1,1,1
0,1,0,0,0,0,0,1,1
0,1,0,0,0,0,1,1,1
0,0,0,0,1,1,1,1,1
0,0,0,1,0,0,0,0,1
0,1,0,1,0,0,1,0,1
1,0,0,1,1,1,1,1,1
0,0,0,0,1,1,1,1,1
0,0,0,0,1,1,1,1,1
0,1,0,1,0,0,0,0,1
0,1,0,1,1,1,1,0,1
0,1,0,1,0,0,1,1,1
0,1,1,1,0,0,0,1,1
1,1,0,1,0,1,1,1,1
0,0,0,1,0,0,1,0,1
0,1,0,1,0,0,1,0,1
0,1,0,0,0,0,0,0,1
1,0,0,1,1,1,1,1,1
0,1,0,0,0,0,1,1,1
1,0,0,1,1,1,1,1,1
0,1,0,0,0,0,1,1,1
1,1,0,1,1,1,1,1,1
0,1,0,1,0,0,0,0,1
0,1,0,0,0,0,1,1,1
0,1,0,1,1,1,1,1,1
1,0,1,0,1,1,1,1,1
0,0,0,0,0,0,0,0,1
1,1,0,0,1,1,1,1,0
0,1,0,0,1,1,1,0,1
0,0,0,0,1,1,1,1,1
1,0,0,1,1,1,1,1,1
1,0,0,1,1,1,1,1,1
0,1,0,0,0,0,1,0,1
0,1,0,0,0,0,1,1,1
0,1,0,0,0,0,1,1,1
0,1,0,0,1,1,0,1,1
0,0,0,0,1,1,1,1,1
0,0,0,1,1,1,1,1,1
0,1,0,0,0,0,1,0,1
0,0,0,1,1,1,1,1,1
0,1,0,0,1,1,1,1,1
0,1,0,0,0,0,1,1,1
1,0,0,1,1,1,1,1,1
0,1,0,0,1,1,1,1,1
0,1,0,1,0,0,1,0,1
0,1,1,1,0,0,1,1,1
1,0,0,1,1,1,0,1,1
0,1,0,1,0,0,1,1,1
1,0,0,1,0,0,1,1,1
0,0,0,1,0,0,1,0,1
0,1,0,1,0,0,1,0,1
0,1,0,1,0,0,1,0,1
0,0,0,0,1,1,1,1,1
0,0,0,1,0,0,1,1,1
0,1,0,1,0,0,1,0,1
0,1,0,1,1,1,1,1,1
1,1,0,1,1,1,1,0,1
0,1,0,0,0,0,1,1,1
0,0,0,0,1,1,1,1,1
0,1,0,0,1,1,1,1,1
0,1,0,1,0,0,1,1,1
0,1,0,1,0,0,1,1,1
1,0,0,1,1,1,1,1,1
0,1,0,0,0,0,1,0,1
1,1,0,0,1,1,1,0,1
1,0,0,1,1,1,1,1,1
0,1,0,1,0,0,1,0,1
0,0,0,0,1,1,1,1,1
0,1,0,0,0,0,1,1,1
0,1,0,0,0,0,1,0,0
0,1,0,1,0,0,1,0,1
0,0,0,1,0,0,0,0,1
0,1,0,1,0,0,1,1,1
0,1,0,1,0,0,1,1,1
0,1,0,1,1,1,1,1,1
1,1,0,1,1,1,1,1,1
0,1,0,0,0,0,1,1,1
0,1,0,0,0,0,1,1,1
0,0,0,0,1,1,0,1,1
0,1,0,0,1,1,1,0,1
0,0,0,0,0,0,1,0,1
0,0,0,0,0,0,1,0,1
1,0,0,1,1,1,1,1,1
0,1,0,1,0,0,1,0,1
1,1,0,1,1,1,1,1,1
0,0,1,1,0,0,1,1,0
0,1,0,0,0,0,1,0,1
0,1,0,1,0,0,1,0,1
0,0,0,1,1,1,1,1,1
0,1,0,1,0,0,1,0,1
0,0,0,0,0,0,1,0,1
0,1,0,1,0,0,1,1,1
0,1,0,0,0,0,1,0,1
0,0,0,0,1,1,1,1,1
0,0,0,0,1,1,1,0,1
0,1,0,0,0,0,1,0,1
0,1,0,0,0,0,1,0,1
0,0,0,0,1,1,1,1,1
0,1,0,1,1,1,1,1,1
0,0,0,0,0,0,1,1,1
0,0,0,0,1,1,1,1,1
0,0,0,1,1,1,1,1,1
0,0,0,1,0,0,1,1,1
1,0,0,1,1,1,1,1,1
0,1,0,0,0,0,1,0,1
1,1,0,1,1,1,1,1,1
0,1,0,0,0,0,1,1,1
1,1,0,1,1,1,1,1,0
0,0,0,0,1,1,1,1,1
0,0,0,0,0,0,1,1,1
0,1,0,1,0,0,0,1,1
0,1,0,0,0,0,1,1,1
0,0,0,0,1,1,1,0,1
0,1,0,0,0,0,1,1,1
1,0,0,1,1,1,1,1,1
0,1,0,0,0,0,1,1,1
1,0,1,1,1,1,1,0,1
0,1,0,1,0,0,1,1,1
0,1,0,1,0,0,1,0,1
0,0,0,1,0,0,1,0,1
0,0,0,1,0,0,1,0,1
1,0,0,0,0,0,1,1,1
1,0,0,1,0,0,1,1,1
0,1,0,0,0,0,1,0,1
1,0,0,1,1,1,1,1,1
0,1,0,1,1,1,1,1,1
0,0,0,1,0,0,1,0,1
0,1,0,0,1,1,1,0,1
0,1,0,0,1,1,1,1,1
1,0,0,1,1,1,1,1,1
1,1,0,1,1,1,1,0,1
0,1,0,1,0,0,1,0,1
0,1,0,0,1,1,0,1,1
0,1,0,1,0,0,0,0,1
0,1,0,0,0,0,1,1,1
0,0,0,0,0,0,1,1,1
0,1,0,0,0,0,1,1,1
0,0,0,0,1,1,1,1,1
0,0,0,0,1,1,1,1,1
0,0,0,0,0,0,1,0,1
1,0,0,1,1,1,0,0,1
0,1,0,0,0,0,1,0,1
0,1,0,0,0,0,1,1,1
1,0,0,1,0,0,0,0,1
1,1,0,1,1,1,0,1,1
1,1,0,1,1,1,1,1,1
1,0,1,0,1,1,1,0,1
1,1,0,0,0,0,1,1,1
0,0,0,1,0,0,1,0,1
0,0,0,1,0,0,1,1,1
0,0,0,1,0,0,1,0,1
0,1,0,0,0,0,1,1,1
0,1,0,0,0,0,1,0,1
0,0,0,1,0,0,0,0,1
1,1,0,1,1,1,1,1,1
0,1,0,1,0,0,1,1,1
0,1,0,0,0,0,1,0,1
1,1,0,1,1,1,1,1,1
0,1,0,1,0,0,1,0,1
1,1,0,1,1,1,0,0,1
0,1,0,0,0,0,1,1,1
0,1,0,1,0,0,1,0,1
0,1,0,1,0,0,1,1,1
0,1,0,1,0,0,1,0,1
0,1,0,0,0,0,1,1,1
1,0,0,0,0,0,1,0,1
1,0,0,0,1,1,1,1,1
1,0,0,1,1,1,1,0,1
1,0,0,1,1,1,1,1,1
0,1,0,0,1,1,1,1,1
0,1,0,0,0,0,1,1,1
0,1,0,1,0,0,0,1,1
0,1,0,0,0,0,0,0,1
0,0,0,1,1,1,1,1,1
1,0,0,0,1,1,1,1,1
1,0,0,1,1,1,1,1,1
1,0,1,1,1,1,1,1,0
1,0,1,1,1,1,1,1,0
1,0,0,1,1,1,1,1,1
0,1,0,1,1,1,1,1,1
0,1,0,1,1,1,1,1,1
0,1,0,1,0,0,1,0,1
0,1,0,0,0,0,1,1,1
0,1,0,0,1,1,1,1,1
0,0,0,1,0,0,0,0,1
1,0,0,1,1,1,1,0,1
1,0,0,0,1,1,1,1,1
1,0,0,0,0,0,1,1,1
1,0,0,1,0,0,1,0,1
1,0,0,1,1,1,1,1,1
0,1,0,1,0,0,1,0,1
1,1,0,0,1,1,1,1,1
0,0,0,1,0,0,1,1,1
0,1,0,0,0,0,1,0,1
1,0,0,0,1,1,1,1,1
0,0,0,0,1,1,0,1,1
0,1,0,0,0,0,0,0,1
0,1,0,1,0,0,1,1,1
1,0,0,1,1,1,1,1,1
1,1,0,1,1,1,1,1,1
0,1,0,0,1,1,1,1,1
1,1,0,1,1,1,1,1,1
0,1,0,0,1,1,1,1,1
1,1,0,1,1,1,1,1,1
0,1,0,1,1,1,1,1,1
0,0,0,0,0,0,0,0,1
1,0,0,1,1,1,1,1,1
0,1,0,0,1,1,1,1,1
1,1,0,1,1,1,1,1,1
0,1,0,0,0,0,0,0,1
0,0,0,0,0,0,0,1,1
0,0,0,0,0,0,0,0,1
0,1,0,1,1,1,1,1,1
1,1,0,1,1,1,1,1,1
0,1,0,0,1,1,0,1,1
0,1,0,0,0,0,1,1,1
0,1,0,0,0,0,1,0,1
0,1,0,0,0,0,1,1,1
0,0,0,1,0,0,1,0,1
0,1,0,0,1,1,1,1,1
0,0,0,1,0,0,0,0,1
1,0,0,0,1,1,1,1,1
0,1,0,0,1,1,1,1,1
0,0,0,0,1,1,0,1,1
0,0,0,0,1,1,1,1,1
0,1,0,0,0,0,1,1,1
0,0,0,0,1,1,1,1,1
0,0,0,1,0,0,1,0,1
0,0,0,0,1,1,1,1,1
0,1,0,1,0,0,0,0,1
0,1,0,1,0,0,1,1,1
0,1,0,1,0,0,1,0,1
0,1,0,0,0,0,1,1,1
1,0,0,1,1,1,1,1,1
0,0,0,1,0,0,0,0,1
0,0,0,0,1,1,1,1,1
0,1,0,0,0,0,1,1,1
0,0,0,0,0,0,1,1,1
1,0,0,0,1,1,1,0,1
0,0,0,0,0,0,1,0,1
0,0,1,1,1,1,1,0,1
0,1,0,1,0,0,1,1,1
0,1,0,1,0,0,1,0,1
0,0,0,0,0,0,1,0,1
0,1,0,1,1,1,1,1,1
0,0,0,0,1,1,1,1,1
0,0,0,1,1,1,1,1,1
0,0,0,1,1,1,1,1,1
0,1,0,0,1,1,1,1,1
0,1,0,0,0,0,1,0,1
0,1,0,1,0,0,1,0,1
1,0,0,1,0,0,1,0,1
1,0,0,1,0,0,1,1,0
0,1,0,0,0,0,1,1,1
1,0,0,1,1,1,1,1,1
0,1,0,0,0,0,1,0,1
1,0,1,0,1,1,1,1,1
0,1,0,0,0,0,0,0,1
1,1,0,1,1,1,1,1,1
0,0,0,0,0,0,0,0,1
0,1,0,1,1,1,1,1,1
1,0,0,1,1,1,1,1,0
0,1,0,0,0,0,1,0,1
0,0,0,1,1,1,1,1,1
0,1,0,0,0,0,1,1,1
0,1,0,0,0,0,0,0,1
0,1,0,0,1,1,1,1,1
0,1,0,0,0,0,1,0,1
0,0,0,0,0,0,1,1,1
0,0,0,0,0,0,1,1,1
0,0,0,0,1,1,1,1,1
0,0,0,0,1,1,1,1,1
0,1,0,1,0,0,1,0,1
0,1,0,1,0,0,1,0,1
0,0,0,0,0,0,1,0,1
0,1,0,0,0,0,1,1,1
0,1,0,0,0,0,1,0,1
1,1,0,1,1,1,1,1,1
1,0,0,0,1,1,0,0,1
1,0,0,1,0,0,1,0,1
1,0,0,0,1,1,1,1,1
0,1,0,0,0,0,1,1,1
0,0,0,0,1,1,1,1,1
0,1,0,0,1,1,1,1,1
1,0,0,1,1,1,0,1,1
0,0,0,0,1,1,1,1,1
0,1,0,1,0,0,1,0,1
1,1,0,1,1,1,1,1,1
1,0,0,1,1,1,1,1,1
0,0,0,1,0,0,0,1,1
0,1,0,0,1,1,1,1,1
0,1,0,0,0,0,1,1,1
0,0,1,0,1,1,1,1,1
1,1,0,1,1,1,1,1,1
0,1,0,0,1,1,1,1,1
0,1,0,1,0,0,0,0,1
0,0,0,1,1,1,1,1,1
0,0,0,0,1,1,1,1,1
1,0,0,1,1,1,1,1,0
0,0,0,1,1,1,1,1,1
0,0,0,1,1,1,1,1,1
0,0,0,0,0,0,1,1,1
1,1,0,0,1,1,1,1,1
0,1,0,0,0,0,1,0,1
0,1,0,1,1,1,1,1,1
0,1,0,0,0,0,1,1,1
0,1,0,0,0,0,1,0,1
0,1,1,1,0,0,1,1,1
1,0,0,1,1,1,0,1,1
0,1,0,1,0,0,1,1,1
0,1,0,1,1,1,1,1,1
0,1,0,0,1,1,1,1,1
0,1,0,0,1,1,1,1,1
0,0,0,0,1,1,1,1,1
0,1,0,1,0,0,1,0,1
1,1,0,1,1,1,1,0,1
1,0,0,1,1,1,1,1,1
0,0,0,0,1,1,1,1,1
0,1,0,1,0,0,1,0,1
1,0,1,1,1,1,1,1,0
1,0,0,0,1,1,1,1,1
0,1,0,0,0,0,1,1,1
0,0,0,0,0,0,1,0,1
0,1,0,1,1,1,1,1,1
1,0,0,1,1,1,1,1,0
0,0,0,0,1,1,1,1,1
1,0,0,1,1,1,1,1,1
0,0,0,1,1,1,1,1,1
0,0,0,1,1,1,0,1,1
0,0,0,0,0,0,1,1,1
0,0,0,1,0,0,1,0,1
1,0,0,0,1,1,1,0,1
0,0,0,1,0,0,1,0,1
1,1,0,1,0,0,1,0,0
0,1,0,1,0,0,1,0,1
1,0,0,1,1,1,1,0,1
1,0,0,1,1,1,0,0,1
1,1,0,1,0,0,0,1,1
1,1,0,1,1,1,1,1,1
0,1,0,0,0,0,1,1,1
1,0,0,1,1,1,1,0,1
1,0,1,1,1,1,1,1,1
0,0,0,1,1,1,1,1,1
0,0,0,1,1,1,1,1,1
0,1,0,1,0,0,1,0,1
0,0,0,1,0,0,0,0,1
0,1,0,0,0,0,0,1,1
0,1,0,1,0,0,1,1,1
0,0,0,1,1,1,1,1,1
1,0,0,0,1,1,1,1,1
0,1,0,0,0,0,1,1,1
0,0,0,0,0,0,1,0,1
0,1,0,0,1,1,1,1,1
0,1,0,1,0,0,1,0,1
0,1,0,1,0,0,1,1,1
0,1,0,1,0,0,1,1,1
0,1,0,1,0,0,1,0,1
0,1,0,0,0,0,0,0,1
0,0,0,1,0,0,0,0,1
0,1,0,0,1,1,1,1,1
1,0,0,1,1,1,1,1,1
1,1,0,0,1,1,1,1,1
1,1,0,1,1,1,1,1,1
1,0,0,1,1,1,1,1,1
0,1,0,0,1,0,1,0,1
0,1,0,0,0,0,1,1,1
0,0,0,1,0,0,1,0,1
0,1,0,1,0,0,0,0,1
0,1,0,0,1,1,1,1,1
0,0,0,1,1,1,1,1,1
0,1,0,1,0,0,1,0,1
0,1,0,1,0,0,0,1,1
0,1,0,1,0,0,1,0,1
0,0,0,0,1,1,1,1,1
0,0,0,1,0,0,1,1,1
0,0,0,1,1,1,1,1,1
0,0,0,1,1,1,1,1,1
0,1,0,0,0,0,1,0,1
1,0,0,1,1,1,1,1,0
0,1,0,0,0,0,1,0,1
0,0,0,0,0,0,1,0,1
0,1,0,1,0,0,0,0,1
1,0,0,1,1,1,1,1,1
0,1,0,1,1,1,1,1,1
0,0,0,0,0,0,0,0,1
1,0,0,1,1,1,1,1,1
0,0,0,0,0,0,1,0,1
1,1,0,1,1,1,1,0,1
0,1,0,1,0,0,0,0,1
0,0,0,1,0,0,1,0,1
0,0,0,0,0,0,1,0,1
0,0,0,1,1,1,1,1,1
1,0,0,1,1,1,1,1,0
0,0,0,0,1,1,1,1,1
0,0,0,0,1,1,1,1,1
0,1,0,1,0,0,1,1,1
1,0,0,0,1,1,1,0,1
0,1,0,1,1,1,1,1,1
0,0,0,1,0,0,1,0,1
1,0,0,0,1,1,1,0,1
0,1,0,1,0,0,1,0,1
0,1,0,0,0,0,1,0,1
1,0,0,0,1,1,1,1,1
0,1,0,1,0,0,1,1,1
0,0,0,0,1,1,1,1,1
0,1,0,1,1,1,1,1,1
0,1,0,1,0,0,1,0,1
0,1,0,1,1,1,1,1,1
1,0,0,1,0,0,1,1,1
1,0,0,1,1,1,1,1,1
0,1,0,0,0,0,1,1,1
0,1,0,0,0,0,1,1,1
0,0,0,0,0,0,1,1,1
0,1,0,0,0,0,0,0,1
0,1,0,0,0,0,1,0,1
0,1,0,1,0,0,1,1,1
0,1,0,0,0,0,1,0,1
1,0,0,0,0,0,0,1,1
0,1,0,0,0,0,1,0,1
0,1,0,1,0,0,1,0,1
0,0,0,0,1,1,1,1,1
0,1,0,0,1,1,1,1,1
0,1,0,0,0,0,1,0,1
1,0,0,1,1,1,1,1,1
0,1,0,1,1,1,1,1,1
1,0,0,1,1,1,1,1,1
0,0,0,0,0,0,0,0,1
0,1,0,1,0,0,1,0,1
1,0,0,1,1,1,1,1,0
1,1,0,1,1,1,1,1,0
0,1,0,0,1,1,1,1,1
0,1,0,0,1,1,1,1,1
0,1,0,0,1,1,1,1,1
0,1,1,1,1,1,1,1,1
1,1,0,0,1,1,1,1,1
0,1,0,1,0,0,0,1,1
1,0,0,1,1,1,1,1,1
0,1,0,0,1,1,1,1,1
0,1,0,0,0,0,0,1,1
0,1,0,1,1,1,1,0,1
0,1,0,1,0,0,1,0,1
0,1,0,1,0,0,1,0,1
0,1,0,1,1,1,1,1,1
0,1,0,0,1,1,1,1,1
0,1,0,1,1,1,1,1,1
1,0,0,1,1,1,1,1,1
0,1,0,1,0,0,0,0,1
1,0,0,1,1,1,1,1,1
0,1,0,1,0,0,0,0,1
0,0,0,1,1,1,1,1,1
1,0,0,1,1,1,1,1,0
1,0,0,0,1,1,1,1,1
0,1,0,1,0,0,1,0,1
0,1,0,1,0,0,1,1,1
0,1,0,0,0,0,1,0,1
1,0,0,1,1,1,1,1,0
0,0,1,1,0,0,1,1,1
0,1,0,0,1,1,1,1,1
1,1,1,1,1,1,1,1,1
0,0,0,0,0,0,1,1,1
1,1,0,1,1,1,1,1,1
0,1,0,1,1,1,1,1,1
0,0,0,0,1,1,0,0,1
0,1,0,1,1,0,1,0,1
0,1,0,1,0,0,0,1,1
0,1,0,1,0,0,1,0,1
0,0,0,0,1,1,1,1,1
1,1,0,1,1,1,1,1,0
0,0,0,1,1,1,1,1,1
0,1,0,1,1,1,0,1,1
0,0,1,0,1,1,1,1,1
0,1,0,0,0,0,0,1,1
0,1,0,1,0,0,0,0,1
0,0,0,0,0,0,1,0,1
1,0,0,1,1,1,1,1,1
0,0,0,0,0,0,0,0,1
0,1,0,1,0,0,1,1,1
0,1,0,1,0,0,1,1,1
1,1,0,1,0,0,0,1,1
1,0,1,1,1,1,1,1,1
1,0,0,1,1,1,1,1,1
0,0,0,0,1,1,1,1,1
0,0,0,1,0,0,1,0,1
0,1,0,0,0,0,1,1,1
0,0,0,0,0,0,0,1,1
1,0,0,1,1,1,1,1,1
1,1,0,0,1,1,0,1,1
0,1,0,1,0,0,1,0,1
1,1,0,1,0,0,1,1,1
1,1,0,1,0,0,1,1,1
0,0,0,1,1,1,1,1,1
0,1,0,0,1,1,1,1,1
0,0,0,1,0,0,1,0,1
0,1,0,1,0,0,1,0,1
0,1,0,1,1,1,1,1,1
0,0,0,0,1,1,1,1,1
1,1,0,1,1,1,1,1,0
0,0,0,0,1,1,1,1,1
0,1,0,1,0,0,1,0,1
1,1,1,1,1,1,1,1,1
1,0,0,0,1,1,1,1,1
1,0,0,0,1,1,1,1,1
0,1,0,1,0,0,0,0,1
0,1,0,0,1,1,1,1,1
0,0,0,0,1,1,1,1,1
1,1,0,1,1,1,1,1,1
1,0,0,1,0,0,1,0,0
1,0,0,0,1,1,1,1,1
0,1,0,1,0,0,1,0,1
1,0,0,1,1,1,1,1,0
0,1,0,0,0,0,1,0,1
1,1,0,1,1,1,1,1,1
0,1,0,0,0,0,1,0,1
0,1,0,1,1,1,1,1,1
1,1,0,0,1,1,1,0,1
1,0,0,1,1,1,1,0,1
0,1,0,0,0,0,0,0,1
0,0,0,1,1,1,1,0,1
1,0,0,1,1,1,1,1,1
0,1,0,0,1,1,1,1,1
1,0,0,0,1,1,1,1,1
1,0,1,1,1,1,1,1,0
1,0,0,1,1,1,1,1,0
1,1,0,1,1,1,1,1,1
0,1,0,1,0,0,1,0,1
0,0,0,1,1,1,1,1,1
0,0,0,1,0,0,1,1,1
1,0,0,1,0,0,1,0,1
1,0,0,1,1,1,1,1,1
0,1,0,0,0,0,0,0,1
0,1,0,1,0,0,1,0,1
0,0,0,0,0,0,1,0,1
0,1,0,1,1,1,1,1,1
0,1,0,0,0,0,1,0,1
0,1,0,0,1,1,1,1,1
0,0,0,1,1,1,1,1,1
0,1,0,0,1,1,0,1,1
1,0,0,1,1,1,1,1,0
0,1,0,0,0,0,1,0,1
1,1,0,1,0,0,1,0,1
0,0,0,0,1,1,0,1,1
0,1,0,1,0,0,1,1,1
0,1,0,0,0,0,1,0,1
1,1,0,1,1,1,1,1,1
0,1,0,1,0,0,1,1,1
1,0,0,0,1,1,0,1,0
1,1,0,1,0,0,1,0,1
0,0,0,1,1,1,1,1,1
0,0,0,0,0,0,1,0,1
0,0,1,1,0,0,1,0,1
0,1,0,1,0,0,1,0,1
0,1,0,0,0,0,1,0,1
1,0,0,1,1,1,1,1,1
1,0,0,1,1,1,1,1,1
0,1,0,0,0,0,1,0,1
0,0,0,0,1,1,1,1,1
1,1,0,1,1,1,1,1,1
0,1,0,0,1,1,1,1,1
0,0,0,0,1,1,1,0,1
1,0,1,1,1,1,1,1,0
1,1,0,1,1,1,1,1,1
0,1,0,0,0,0,1,1,1
0,1,0,1,0,0,1,1,1
0,0,0,0,1,1,1,1,1
0,0,0,0,0,0,1,1,1
0,1,0,0,0,0,1,1,1
1,1,0,1,1,1,1,1,1
0,0,0,0,0,0,1,0,1
0,0,0,0,1,1,1,1,1
0,0,0,0,1,1,0,1,1
0,0,0,0,0,0,1,0,1
1,1,0,1,1,1,1,1,1
0,1,0,0,1,1,1,1,1
0,1,0,1,0,0,1,1,1
0,0,0,0,0,0,1,0,1
0,1,0,0,1,1,1,1,1
0,1,0,1,1,1,1,1,1
1,1,0,1,1,1,1,1,1
1,1,0,1,1,1,1,1,1
0,0,0,0,0,0,1,0,1
0,1,0,0,0,0,1,1,1
0,1,0,0,0,0,1,1,1
0,0,0,1,0,0,0,1,1
0,1,0,1,0,0,1,1,1
0,1,0,1,1,1,1,1,1
0,1,0,1,0,0,1,0,1
0,0,0,0,1,1,1,1,1
1,0,1,1,1,1,1,1,1
1,0,0,0,1,1,1,1,1
1,1,0,1,1,1,1,1,1
0,1,0,0,0,0,0,1,1
0,1,0,1,0,0,1,1,1
0,0,0,0,0,0,1,0,1
0,0,0,1,1,1,1,1,1
0,1,0,1,1,1,1,1,1
0,0,0,1,1,1,1,1,1
0,0,0,0,1,1,1,1,1
0,0,0,0,0,0,0,0,1
0,0,0,1,0,0,1,0,1
0,1,0,1,0,0,1,0,1
0,0,0,0,0,0,1,0,1
0,1,0,1,1,1,1,1,1
0,0,0,1,0,0,0,1,1
0,1,0,0,0,0,0,0,1
0,1,0,0,1,1,1,1,1
0,1,0,0,1,1,1,1,1
0,0,0,0,0,0,1,1,1
0,1,0,1,0,0,1,1,1
1,0,0,1,1,1,1,1,1
0,1,0,0,0,0,1,1,1
0,1,0,0,1,1,1,0,1
0,0,0,0,0,0,0,0,1
0,0,0,1,0,0,1,1,1
0,1,0,0,1,1,1,1,1
0,0,0,1,1,1,1,1,1
1,0,0,1,1,1,1,1,0
0,1,0,1,0,0,1,1,1
0,1,0,1,0,0,1,1,1
0,1,0,0,0,0,1,1,1
0,0,0,0,1,1,1,1,1
0,0,0,0,1,1,1,1,1
0,0,0,1,0,0,1,0,1
0,1,0,1,1,1,0,1,1
1,0,0,0,1,1,1,1,1
0,1,0,0,0,0,1,0,1
1,1,0,1,1,1,1,1,1
0,1,0,0,0,0,1,1,1
0,1,0,0,0,0,1,0,1
0,1,0,1,1,1,1,1,1
0,1,0,0,0,0,0,0,1
0,1,0,0,0,0,1,0,1
0,1,0,1,0,0,1,0,1
0,0,0,0,1,1,1,1,1
0,1,0,0,0,0,1,1,1
0,0,0,0,0,0,1,1,1
1,1,0,1,1,1,1,1,1
0,1,0,1,0,0,1,0,1
0,1,0,1,0,0,1,1,1
0,0,0,0,1,1,1,1,1
0,1,0,1,1,1,1,1,1
0,1,0,1,0,0,1,0,1
0,1,0,1,0,0,1,1,1
1,0,0,1,1,1,1,1,1
0,1,0,0,0,0,0,1,1
0,1,0,1,0,0,1,1,1
0,1,0,0,0,0,1,0,1
0,1,0,0,0,0,1,0,1
0,0,1,1,0,0,1,0,1
0,1,0,1,0,0,1,0,1
0,1,0,1,1,1,1,1,1
1,1,0,1,0,0,1,1,0
0,1,0,1,1,1,1,1,1
0,0,0,0,1,0,1,0,1
0,1,0,0,0,0,1,0,1
0,0,0,0,1,1,0,1,1
1,0,0,1,1,1,1,1,1
0,0,0,1,1,1,0,1,1
1,0,0,1,0,0,1,1,1
0,1,0,0,0,0,1,1,1
1,1,1,1,1,1,1,1,0
0,1,0,1,0,0,1,1,1
0,1,0,0,0,0,1,1,1
0,1,0,1,0,0,1,1,1
0,0,0,1,0,0,1,1,1
0,0,0,0,0,0,1,0,1
0,1,0,1,1,1,1,1,1
0,1,0,1,0,0,1,1,1
0,1,0,1,0,0,1,0,1
0,1,0,1,0,0,1,0,1
0,1,0,0,0,0,1,1,1
0,0,1,1,0,0,1,1,1
0,1,0,0,0,0,1,1,1
0,1,0,0,0,0,1,1,1
0,1,0,0,1,1,1,1,1
0,1,0,0,0,0,1,1,1
0,1,0,1,0,0,1,0,1
1,0,0,0,1,1,1,1,1
0,1,0,1,0,0,1,0,1
0,1,0,0,1,1,1,1,1
0,0,0,0,1,1,1,1,1
0,1,0,1,0,0,1,1,1
0,1,0,0,0,0,1,0,1
1,1,0,1,1,0,1,1,1
0,1,0,1,0,0,0,1,1
1,1,0,1,1,1,1,0,1
0,0,0,0,0,0,0,0,1
0,1,0,1,0,0,1,0,1
1,1,0,1,0,0,1,1,1
0,1,0,1,1,1,1,1,1
0,0,0,1,1,1,1,1,1
1,1,0,1,1,1,1,0,1
0,1,0,1,0,0,1,0,1
0,1,0,0,0,0,1,0,1
1,0,0,1,1,1,1,1,1
1,1,1,1,1,1,1,1,0
1,0,0,0,1,1,0,1,1
0,1,0,1,0,0,0,1,1
0,0,0,1,1,1,1,1,1
0,1,0,0,0,0,0,0,1
0,1,0,0,0,0,1,1,1
1,1,1,0,1,1,1,1,1
0,0,0,1,0,0,0,0,1
0,0,0,1,0,0,1,1,1
1,1,1,1,1,1,1,1,1
0,1,0,0,0,0,1,0,1
1,1,0,0,1,1,1,1,1
1,0,0,1,1,1,1,1,1
0,1,0,1,0,0,1,0,1
1,1,0,1,0,0,1,1,1
0,1,0,1,1,1,1,1,1
0,0,0,1,0,0,1,1,1
0,1,0,1,1,1,0,1,1
0,0,0,1,0,0,1,1,1
0,1,0,1,1,1,1,1,1
0,0,0,0,1,1,1,1,1
0,0,0,0,1,1,1,1,1
0,1,0,1,1,1,1,1,1
0,1,0,1,1,1,0,1,1
0,0,0,1,0,0,1,0,1
0,1,0,0,1,1,1,1,1
0,1,0,1,0,0,0,0,1
0,1,0,0,1,1,1,1,1
0,1,0,0,1,1,1,1,1
1,0,0,1,1,1,0,0,1
1,0,0,1,0,0,1,0,0
1,1,0,1,1,1,1,1,1
0,1,0,1,0,0,1,0,1
0,0,0,0,1,0,1,0,1
0,0,0,0,1,1,1,1,1
1,1,0,1,1,1,1,1,1
0,1,0,0,0,0,1,0,1
0,1,0,1,0,0,1,0,1
1,0,0,1,0,0,1,0,0
1,0,0,0,1,1,1,1,1
0,1,0,0,0,0,1,0,1
0,0,0,0,1,1,1,1,1
0,1,0,1,0,0,1,0,1
0,1,0,1,0,0,1,1,1
0,0,0,0,0,0,1,1,1
0,1,0,0,0,0,1,0,1
0,0,0,1,1,1,1,1,1
0,1,0,0,0,0,1,1,1
0,1,0,1,0,0,1,1,1
0,1,0,0,0,0,1,1,1
0,1,0,1,0,0,0,0,1
0,1,0,1,0,0,1,1,1
0,1,0,1,0,0,0,0,1
0,1,0,0,0,0,1,1,1
0,1,0,0,0,0,0,0,1
0,1,0,0,0,0,0,0,1
1,0,0,1,1,1,1,1,1
0,1,0,1,1,1,1,1,1
0,1,0,1,1,1,1,1,1
0,0,0,0,1,1,1,1,1
0,1,0,1,1,1,1,0,1
1,0,0,1,1,1,1,1,1
0,1,0,1,0,0,1,1,1
0,1,0,1,1,1,1,1,1
0,0,0,0,1,1,1,1,1
0,1,0,0,0,0,1,0,1
0,1,0,1,0,0,1,1,1
0,1,0,0,1,1,1,1,1
0,1,0,1,0,0,1,0,1
0,1,0,0,0,0,1,1,1
0,1,0,1,0,0,1,0,1
0,1,0,1,0,0,1,1,1
1,0,0,1,1,1,1,1,1
1,0,0,1,1,1,1,1,1
0,1,0,1,1,1,1,1,1
0,1,0,1,1,1,1,0,1
0,1,0,1,0,0,1,0,1
1,1,1,1,1,1,1,1,1
0,1,0,0,1,1,1,1,1
1,0,0,1,1,1,1,1,1
0,1,1,0,0,0,1,0,1
1,0,0,1,1,1,1,1,1
0,0,0,0,0,0,1,1,1
0,1,0,1,0,0,1,0,1
0,1,0,1,0,0,1,0,1
0,1,0,0,0,0,0,1,1
0,0,0,0,0,0,0,1,1
0,1,0,1,0,0,1,1,1
0,0,0,0,1,1,1,1,1
0,1,0,0,1,1,1,1,1
1,0,0,1,1,1,1,1,1
0,1,0,1,0,0,1,0,1
0,1,0,0,0,0,1,1,1
0,1,0,1,0,0,1,1,1
0,1,0,1,0,0,1,1,1
1,1,0,1,1,1,1,1,1
1,0,0,1,1,1,1,1,0
1,1,0,1,1,1,1,1,1
0,0,0,1,1,1,1,1,1
0,1,0,0,0,0,1,0,1
0,1,0,1,0,0,1,0,1
0,0,0,0,1,1,1,1,1
0,1,0,0,1,1,1,1,1
1,0,0,1,1,1,1,1,1
0,1,0,1,0,0,1,0,1
0,1,0,1,0,0,1,0,1
1,0,1,1,1,1,1,1,1
0,0,0,1,0,0,1,0,1
0,0,0,1,1,1,1,1,1
