julia>  include("main.jl")
=== Warning: Existing features found, features creation skipped
=== Loading existing features
=== ... 1017 individuals in the train set
=== ... 31544 individuals in the test set
=== ... 15 features
=== Warning: Existing rules found, rules creation skipped
=== Loading the existing rules
=== ... 111 rules obtained
=== Sorting the rules
Version identifier: 12.10.0.0 | 2019-11-26 | 843d4de2ae
CPXPARAM_TimeLimit                               300
Tried aggregator 2 times.
MIP Presolve eliminated 468726 rows and 86389 columns.
MIP Presolve modified 65319 coefficients.
Aggregator did 1 substitutions.
Reduced MIP has 97065 rows, 39950 columns, and 334391 nonzeros.
Reduced MIP has 38821 binaries, 1128 generals, 0 SOSs, and 0 indicators.
Presolve time = 0.56 sec. (740.34 ticks)
Found incumbent of value -512.000000 after 0.77 sec. (987.94 ticks)
Probing time = 0.33 sec. (66.41 ticks)
Tried aggregator 1 time.
Detecting symmetries...
Reduced MIP has 97065 rows, 39950 columns, and 334391 nonzeros.
Reduced MIP has 38821 binaries, 1129 generals, 0 SOSs, and 0 indicators.
Presolve time = 0.41 sec. (556.35 ticks)
Probing time = 0.28 sec. (64.17 ticks)
Clique table members: 100447.
MIP emphasis: balance optimality and feasibility.
MIP search method: dynamic search.
Parallel mode: deterministic, using up to 12 threads.
Root relaxation solution time = 5.92 sec. (7298.40 ticks)

        Nodes                                         Cuts/
   Node  Left     Objective  IInf  Best Integer    Best Bound    ItCnt     Gap

*     0+    0                         -512.0000    17670.0000              ---
      0     0     1017.9550  1580     -512.0000     1017.9550    14914  298.82%
      0     0     1015.9910  1580     -512.0000     Cuts: 693    16385  298.44%
      0     0     1015.9903  1580     -512.0000     Cuts: 969    20731  298.44%
      0     0     1015.9903  1580     -512.0000     Cuts: 679    24529  298.44%
      0     0     1015.9903  1580     -512.0000     Cuts: 524    29708  298.44%
      0     0     1015.9903  1580     -512.0000      Cuts: 32    29810  298.44%
      0     0     1015.9903  1580     -512.0000     Cuts: 349    30069  298.44%
Heuristic still looking.
      0     2     1015.9903  2028     -512.0000     1015.9903    30069  298.44%
Elapsed time = 43.25 sec. (79388.11 ticks, tree = 0.02 MB, solutions = 1)
      1     3     1015.9903  1998     -512.0000     1015.9903    30172  298.44%
      2     3     1015.9810  2256     -512.0000     1015.9903    34897  298.44%
      4     5     1015.9810  2256     -512.0000     1015.9903    35013  298.44%
     16     5     1015.9717  2257     -512.0000     1015.9903    35211  298.44%
     23    11     1015.9717  2264     -512.0000     1015.9903    35449  298.44%
     28     8     1015.9810  2283     -512.0000     1015.9903    35407  298.44%
     34     4     1015.9903  2086     -512.0000     1015.9903    33621  298.44%
     36    20     1015.4775  2310     -512.0000     1015.9903    43062  298.44%
     38    22     1015.4414  2336     -512.0000     1015.9903    43313  298.44%
     43    22    infeasible           -512.0000     1015.9903    43824  298.44%
Elapsed time = 62.44 sec. (88108.76 ticks, tree = 3.14 MB, solutions = 1)
     47    29    infeasible           -512.0000     1015.9903    46567  298.44%
     58    34     1015.9810  2353     -512.0000     1015.9903    50543  298.44%
     79    34     1015.9810  2156     -512.0000     1015.9903    58550  298.44%
    100    48     1015.9810  2158     -512.0000     1015.9903    81491  298.44%
    116    69     1015.9810  2292     -512.0000     1015.9903   104549  298.44%
    125    73     1015.9089  2205     -512.0000     1015.9903   108706  298.44%
    139    88     1015.9717  2274     -512.0000     1015.9903   113972  298.44%
    147    97     1015.9810  2317     -512.0000     1015.9903   115254  298.44%
    159   108     1015.9810  2322     -512.0000     1015.9903   123968  298.44%
    176   112     1015.9717  2353     -512.0000     1015.9903   119092  298.44%
Elapsed time = 99.55 sec. (97986.20 ticks, tree = 9.32 MB, solutions = 1)
    203   129     1015.9717  2350     -512.0000     1015.9903   127353  298.44%
    228   121     1015.9717  2232     -512.0000     1015.9903   127148  298.44%
    254   158     1015.9810  2309     -512.0000     1015.9903   129587  298.44%
    286   188     1015.9720  2231     -512.0000     1015.9903   148030  298.44%
    306   210     1015.9425  2436     -512.0000     1015.9903   156744  298.44%
    340   227     1015.8639  2170     -512.0000     1015.9903   158307  298.44%
    372   256     1015.9810  2176     -512.0000     1015.9903   161326  298.44%
    395   289     1015.9810  2176     -512.0000     1015.9903   162983  298.44%
    433   305     1015.9717  2296     -512.0000     1015.9903   175111  298.44%
    456   296     1015.9810  2096     -512.0000     1015.9903   175165  298.44%
Elapsed time = 134.78 sec. (107729.35 ticks, tree = 16.38 MB, solutions = 1)
    484   365     1015.9627  2272     -512.0000     1015.9903   181723  298.44%
    514   379     1015.9720  2218     -512.0000     1015.9903   183217  298.44%
    556   419     1015.9810  2332     -512.0000     1015.9903   186755  298.44%
    599   410     1015.8639  2306     -512.0000     1015.9903   186320  298.44%
    645   500     1015.9810  2359     -512.0000     1015.9903   193644  298.44%
    696   451     1015.9176  2317     -512.0000     1015.9903   190557  298.44%
    757   561     1015.9717  2269     -512.0000     1015.9903   213024  298.44%
    805   558     1015.9810  2105     -512.0000     1015.9903   212351  298.44%
    853   631     1015.9717  2223     -512.0000     1015.9903   218588  298.44%
    906   684     1015.9810  2122     -512.0000     1015.9903   222227  298.44%
Elapsed time = 164.75 sec. (117504.39 ticks, tree = 54.37 MB, solutions = 1)
    957   624     1015.9785  2277     -512.0000     1015.9903   218261  298.44%
    994   837     1015.9810  2312     -512.0000     1015.9903   232707  298.44%
   1024   791     1015.9810  2116     -512.0000     1015.9903   229561  298.44%
   1056   797     1015.9810  2117     -512.0000     1015.9903   229871  298.44%
   1094   815     1015.9450  2113     -512.0000     1015.9903   232169  298.44%
   1131   925     1015.9720  2121     -512.0000     1015.9903   239078  298.44%
   1152   899     1015.8592  2286     -512.0000     1015.9903   237503  298.44%
   1171   902     1015.9627  2236     -512.0000     1015.9903   238004  298.44%
   1186   950     1015.9810  2112     -512.0000     1015.9903   240006  298.44%
   1189   937     1015.9810  2136     -512.0000     1015.9903   240706  298.44%
Elapsed time = 193.19 sec. (127961.46 ticks, tree = 80.04 MB, solutions = 1)
   1190   931     1015.7850  2373     -512.0000     1015.9903   240614  298.44%
   1191   995     1015.9810  2137     -512.0000     1015.9903   246780  298.44%
   1194  1018     1015.9267  2246     -512.0000     1015.9903   248576  298.44%
   1196  1054     1015.9717  2267     -512.0000     1015.9903   250858  298.44%
   1200  1032     1015.8185  2319     -512.0000     1015.9903   250568  298.44%
   1201  1099     1013.9179  2209     -512.0000     1015.9903   253716  298.44%
   1206  1112     1015.9810  2136     -512.0000     1015.9903   267573  298.44%
   1214  1118     1015.9810  2141     -512.0000     1015.9903   268017  298.44%
   1220  1122     1015.9720  2139     -512.0000     1015.9903   268524  298.44%
   1225  1127     1015.9785  2266     -512.0000     1015.9903   269010  298.44%
Elapsed time = 218.73 sec. (163269.17 ticks, tree = 97.74 MB, solutions = 1)
   1234  1136     1015.9785  2248     -512.0000     1015.9903   269447  298.44%
   1241  1143     1015.8639  2129     -512.0000     1015.9903   270137  298.44%
   1242  1144     1015.9810  2217     -512.0000     1015.9903   270885  298.44%
   1245  1111     1015.9717  2376     -512.0000     1015.9903   268336  298.44%
   1253  1151     1015.9450  2198     -512.0000     1015.9903   271803  298.44%
   1267  1153     1015.9717  2371     -512.0000     1015.9903   274105  298.44%
   1283  1157     1015.9717  2364     -512.0000     1015.9903   274436  298.44%
   1301  1147     1015.9176  2360     -512.0000     1015.9903   278330  298.44%
   1316  1165    infeasible           -512.0000     1015.9903   273224  298.44%
   1338  1173     1015.9089  2172     -512.0000     1015.9903   280815  298.44%
Elapsed time = 247.11 sec. (188216.33 ticks, tree = 102.57 MB, solutions = 1)
   1357  1177     1015.8670  2305     -512.0000     1015.9903   281258  298.44%
   1383  1180     1015.9810  2116     -512.0000     1015.9903   279050  298.44%
   1408  1204     1015.9717  2114     -512.0000     1015.9903   290942  298.44%
   1431  1205     1015.9627  2368     -512.0000     1015.9903   284597  298.44%
   1458  1210     1015.9717  2352     -512.0000     1015.9903   284941  298.44%
   1488  1245     1015.9810  2114     -512.0000     1015.9903   295204  298.44%
   1517  1282     1015.8884  2326     -512.0000     1015.9903   302094  298.44%
   1547  1284     1015.8884  2327     -512.0000     1015.9903   302368  298.44%
   1580  1271     1015.9176  2316     -512.0000     1015.9903   300395  298.44%
   1619  1258     1015.9089  2270     -512.0000     1015.9903   298059  298.44%
Elapsed time = 266.53 sec. (198120.16 ticks, tree = 112.18 MB, solutions = 1)
   1650  1367     1015.9627  2107     -512.0000     1015.9903   308244  298.44%
   1688  1267     1015.9048  2376     -512.0000     1015.9903   298746  298.44%
   1726  1437     1015.8996  2210     -512.0000     1015.9903   315735  298.44%
   1766  1314     1015.8524  2326     -512.0000     1015.9903   304482  298.44%
   1799  1393     1015.9717  2089     -512.0000     1015.9903   309986  298.44%
   1838  1441     1015.9720  2085     -512.0000     1015.9903   313428  298.44%
   1867  1485     1015.8816  2173     -512.0000     1015.9903   319194  298.44%
   1892  1489     1015.7783  2302     -512.0000     1015.9903   319529  298.44%
   1939  1477     1015.9089  2217     -512.0000     1015.9903   317475  298.44%
   1984  1481     1015.9089  2216     -512.0000     1015.9903   317810  298.44%
Elapsed time = 283.63 sec. (207917.11 ticks, tree = 134.52 MB, solutions = 1)
   2015  1659     1015.9176  2345     -512.0000     1015.9903   338417  298.44%
   2049  1508     1015.8993  2149     -512.0000     1015.9903   325874  298.44%
   2081  1588     1015.9627  2103     -512.0000     1015.9903   326397  298.44%
   2108  1674     1015.8436  2402     -512.0000     1015.9903   339377  298.44%
   2135  1672     1015.8598  2428     -512.0000     1015.9903   348498  298.44%
   2167  1718     1015.8996  2125     -512.0000     1015.9903   351012  298.44%
   2207  1825     1015.9623  2080     -512.0000     1015.9903   360161  298.44%
   2240  1754     1015.8816  2175     -512.0000     1015.9903   352959  298.44%
   2243  1103     1014.9804  2375     -512.0000     1015.9903   257778  298.44%

Clique cuts applied:  587
Implied bound cuts applied:  314
Flow cuts applied:  2
Mixed integer rounding cuts applied:  65
Zero-half cuts applied:  68
Gomory fractional cuts applied:  107

Root node processing (before b&c):
  Real time             =   42.49 sec. (76946.17 ticks)
Parallel b&c, 12 threads:
  Real time             =  257.76 sec. (141311.00 ticks)
  Sync time (average)   =   42.24 sec.
  Wait time (average)   =    0.00 sec.
                          ------------
Total (root+branch&cut) =  300.25 sec. (218257.16 ticks)
-- Train results
(tp, fp, tn, fn) = (0, 0, 252, 765)
(precision, recall, classSize) = ([NaN, 0.24778761061946902], [0.0, 1.0], [765, 252])
Class   Prec.   Recall  Size
0       NaN     0.0     765
1       0.25    1.0     252

avg     NaN     0.5
w. avg  NaN     0.25

-- Test results
(tp, fp, tn, fn) = (0, 0, 7589, 23955)
(precision, recall, classSize) = ([NaN, 0.24058458026883084], [0.0, 1.0], [23955, 7589])
Class   Prec.   Recall  Size
0       NaN     0.0     23955
1       0.24    1.0     7589

avg     NaN     0.5
w. avg  NaN     0.24