nursery,parent,nurs_crit,nurs_proper,form_comp,child12,housing_conv,housing_crit,finances,social_prob,social_non_prob,health_recom,health_not_recom
0,1,0,1,0,1,0,0,0,0,0,0,1
1,1,0,1,1,1,1,0,0,0,0,0,0
2,1,0,0,0,0,0,0,0,0,0,0,0
0,1,0,1,0,0,0,0,1,1,0,0,1
0,1,1,0,1,1,0,0,1,0,1,0,1
2,0,1,0,0,0,0,0,0,0,1,0,0
1,1,0,0,0,0,1,0,1,0,0,1,0
1,0,0,1,0,0,0,0,0,1,0,1,0
0,0,1,0,0,1,0,1,1,0,1,0,1
2,1,1,0,1,0,0,0,0,1,0,1,0
0,0,0,1,1,0,0,1,1,0,1,0,1
0,1,0,1,0,0,0,1,0,1,0,0,1
2,1,1,0,1,1,1,0,1,0,0,0,0
2,1,1,0,0,1,0,0,0,0,1,1,0
0,1,0,1,1,1,0,0,1,0,1,0,1
0,0,0,1,1,0,1,0,0,1,0,0,1
2,1,1,0,0,1,0,0,1,0,0,0,0
0,1,1,0,0,1,1,0,1,0,0,0,1
2,1,0,0,0,1,1,0,0,0,0,0,0
0,0,1,0,0,0,1,0,1,1,0,0,1
1,0,0,0,0,1,0,1,1,0,0,1,0
2,1,1,0,0,1,1,0,1,1,0,1,0
0,0,0,0,1,0,0,1,1,0,1,0,1
1,0,0,0,1,1,0,0,0,0,1,0,0
1,1,0,1,1,1,0,1,1,0,1,0,0
1,0,0,1,1,1,0,0,1,0,1,0,0
2,1,1,0,0,0,0,0,0,0,1,1,0
0,1,1,0,0,1,0,0,1,0,1,0,1
1,1,1,0,0,1,0,0,0,0,1,1,0
0,1,1,0,1,0,1,0,1,0,1,0,1
1,1,0,1,1,0,0,1,0,1,0,0,0
1,0,0,1,0,0,1,0,1,0,0,0,0
0,1,0,1,0,1,1,0,0,1,0,0,1
2,1,1,0,1,1,0,0,0,1,0,1,0
1,1,0,1,1,0,0,0,0,0,1,1,0
1,0,0,1,0,0,1,0,0,0,0,1,0
2,1,1,0,0,0,1,0,0,0,1,0,0
2,1,0,0,0,1,1,0,0,1,0,1,0
1,1,1,0,0,1,1,0,1,0,1,1,0
0,1,1,0,0,0,0,0,1,0,0,0,1
0,0,0,0,0,1,1,0,1,0,1,0,1
2,1,1,0,1,0,0,1,1,0,1,0,0
2,1,1,0,0,1,1,0,0,0,0,0,0
2,1,1,0,1,1,0,0,0,0,1,0,0
0,1,1,0,1,0,1,0,0,1,0,0,1
0,1,0,1,1,0,1,0,1,1,0,0,1
2,0,1,0,1,1,1,0,0,1,0,0,0
1,0,0,0,1,0,1,0,1,1,0,1,0
1,0,0,1,1,1,1,0,1,0,0,0,0
2,1,0,1,1,0,0,1,0,1,0,0,0
2,1,0,1,0,1,0,1,1,1,0,1,0
1,1,0,1,1,1,0,0,0,0,0,0,0
2,1,1,0,1,1,1,0,0,0,0,0,0
1,1,1,0,1,1,1,0,1,1,0,1,0
0,0,0,0,0,1,0,0,1,0,1,0,1
1,1,0,1,0,0,0,1,1,1,0,0,0
2,1,1,0,1,1,1,0,0,1,0,0,0
0,0,0,0,1,0,0,1,1,0,0,0,1
1,1,0,0,1,1,1,0,1,0,1,1,0
0,0,0,1,1,0,0,1,0,1,0,0,1
1,1,0,1,1,1,0,1,1,1,0,0,0
1,1,0,0,1,1,1,0,1,1,0,0,0
2,1,0,1,0,1,0,1,0,1,0,0,0
1,0,0,1,1,1,0,1,1,0,1,0,0
1,0,0,1,0,1,0,0,1,0,0,1,0
2,0,1,0,1,0,0,1,1,1,0,0,0
0,1,0,1,1,0,1,0,0,0,1,0,1
2,1,1,0,1,0,0,1,0,0,0,0,0
0,1,0,1,0,1,0,1,1,0,1,0,1
1,1,0,0,1,1,0,0,1,0,1,1,0
2,1,0,0,0,1,0,1,0,0,0,0,0
1,1,0,1,1,0,1,0,1,1,0,1,0
2,1,1,0,1,1,0,1,0,1,0,1,0
1,0,0,0,0,0,1,0,0,0,1,1,0
0,1,0,1,0,1,0,1,0,0,1,0,1
2,1,0,1,0,0,0,0,0,0,0,0,0
2,1,1,0,1,0,1,0,0,0,0,0,0
2,1,1,0,1,0,0,0,0,0,0,1,0
1,0,0,0,0,1,0,1,0,0,0,1,0
0,0,0,0,1,1,1,0,0,1,0,0,1
2,1,1,0,1,1,1,0,1,0,1,0,0
0,1,1,0,1,0,0,0,0,1,0,0,1
2,0,1,0,1,1,0,1,1,0,1,1,0
0,0,0,1,1,0,0,0,0,1,0,0,1
1,0,0,1,0,1,0,0,0,0,1,0,0
1,1,0,1,0,0,0,1,0,0,0,1,0
1,0,0,1,0,0,0,0,1,0,0,0,0
0,1,0,1,1,0,0,0,0,0,1,0,1
2,1,1,0,0,1,0,1,1,1,0,0,0
2,1,1,0,1,1,0,1,1,0,1,0,0
1,0,1,0,1,1,0,1,0,0,1,1,0
1,1,0,1,1,0,0,0,1,0,0,0,0
1,0,0,0,0,1,0,1,0,0,1,0,0
1,0,1,0,1,1,0,1,0,0,1,0,0
2,1,1,0,1,1,0,0,1,0,0,0,0
1,0,0,1,1,1,0,1,1,1,0,0,0
0,0,0,1,1,0,0,0,1,1,0,0,1
0,0,0,1,0,1,0,0,0,0,1,0,1
2,1,0,0,0,1,0,1,1,1,0,1,0
2,1,1,0,1,0,0,1,0,0,0,0,0
1,0,0,0,0,1,1,0,1,0,1,0,0
2,1,1,0,0,0,1,0,1,1,0,1,0
1,1,0,0,0,1,1,0,1,0,0,0,0
0,1,1,0,1,0,0,0,0,0,0,0,1
1,1,1,0,0,1,1,0,0,0,0,1,0
2,1,1,0,0,0,1,0,0,1,0,1,0
2,1,0,1,0,0,0,1,0,1,0,1,0
2,1,1,0,0,0,0,0,1,0,0,1,0
1,1,0,1,1,1,0,0,1,1,0,1,0
0,1,1,0,0,0,1,0,1,1,0,0,1
2,1,1,0,1,1,1,0,1,1,0,0,0
0,1,0,1,0,0,0,1,1,1,0,0,1
1,1,0,1,1,0,0,0,0,0,0,1,0
1,0,0,0,0,0,0,1,0,0,0,1,0
1,1,0,1,0,0,0,0,1,0,0,1,0
2,1,0,1,0,0,0,1,0,0,1,0,0
2,1,1,0,0,0,1,0,0,1,0,1,0
1,1,0,0,1,1,1,0,0,0,0,0,0
0,1,1,0,0,0,1,0,1,1,0,0,1
1,0,0,0,1,1,0,1,0,0,1,1,0
1,0,0,1,0,1,0,1,0,0,1,1,0
0,0,0,1,0,0,1,0,1,0,1,0,1
1,1,0,1,0,1,1,0,0,0,1,0,0
2,1,1,0,0,0,0,0,1,0,1,1,0
0,0,0,0,1,1,1,0,0,0,0,0,1
1,0,0,0,1,0,0,0,0,0,1,1,0
1,0,0,0,0,0,0,1,0,1,0,0,0
2,1,1,0,0,1,0,0,1,1,0,0,0
0,1,1,0,0,1,1,0,0,0,1,0,1
0,1,0,1,1,1,1,0,0,1,0,0,1
2,0,1,0,0,1,1,0,0,0,1,0,0
0,1,0,0,1,0,1,0,0,0,0,0,1
1,1,1,0,0,0,1,0,1,0,0,1,0
1,1,1,0,1,1,0,0,0,0,1,1,0
2,1,1,0,0,0,0,1,1,0,1,0,0
1,0,0,1,1,1,0,0,0,1,0,1,0
2,1,0,0,0,0,0,0,1,1,0,0,0
2,1,0,1,0,0,0,0,0,1,0,0,0
0,1,1,0,1,0,0,1,0,0,1,0,1
2,0,1,0,0,0,1,0,0,1,0,0,0
2,1,0,0,1,0,0,0,1,1,0,0,0
1,1,0,1,0,1,0,0,0,0,0,0,0
2,1,1,0,1,0,0,0,0,0,1,1,0
2,1,0,1,0,1,0,0,0,0,1,0,0
2,0,1,0,1,0,0,1,1,0,0,1,0
2,0,1,0,0,1,0,0,0,0,1,0,0
0,1,0,1,0,0,0,0,1,0,1,0,1
1,0,0,1,0,1,0,0,1,0,1,0,0
2,1,1,0,0,0,1,0,0,1,0,1,0
2,0,1,0,1,1,0,1,1,1,0,1,0
1,1,0,0,0,0,0,0,0,0,1,1,0
0,1,1,0,0,1,1,0,0,1,0,0,1
0,0,1,0,1,0,0,1,0,0,1,0,1
1,0,0,0,1,1,1,0,1,1,0,0,0
0,1,0,0,1,1,1,0,0,1,0,0,1
2,1,1,0,0,0,0,0,1,0,1,0,0
0,1,0,1,0,1,0,0,0,1,0,0,1
0,0,0,1,0,1,1,0,0,1,0,0,1
0,0,0,1,0,1,0,1,0,1,0,0,1
1,1,0,1,0,0,1,0,0,0,0,1,0
1,1,0,1,1,0,0,1,0,0,1,0,0
2,1,1,0,1,0,0,1,1,0,1,1,0
1,0,0,0,1,1,0,1,0,0,1,1,0
0,0,1,0,1,0,0,0,1,0,1,0,1
1,1,0,1,1,0,0,1,1,0,0,0,0
1,0,0,0,0,1,1,0,1,0,1,0,0
1,0,0,1,0,0,0,0,1,0,1,1,0
2,1,1,0,0,0,1,0,0,0,1,0,0
0,0,0,1,0,0,0,1,1,0,1,0,1
1,0,1,0,0,0,1,0,1,0,1,0,0
0,1,0,1,0,0,0,0,1,1,0,0,1
0,1,1,0,0,0,0,1,1,0,0,0,1
1,0,0,0,0,0,0,0,0,0,1,1,0
0,0,0,1,0,1,1,0,0,1,0,0,1
0,1,0,1,0,1,1,0,1,1,0,0,1
2,1,1,0,0,1,0,0,1,1,0,1,0
0,0,0,1,1,1,0,0,1,0,0,0,1
1,1,0,0,0,1,0,0,1,0,0,1,0
2,1,0,1,1,0,0,0,0,0,1,0,0
2,1,0,0,1,0,0,0,0,0,0,0,0
0,1,0,0,1,1,1,0,0,0,1,0,1
2,0,1,0,0,0,0,1,0,0,1,0,0
0,1,0,0,1,0,0,0,1,1,0,0,1
1,0,0,1,1,0,0,1,0,1,0,0,0
1,1,0,1,0,0,0,0,1,0,1,1,0
2,1,1,0,0,0,0,0,0,0,0,1,0
2,1,0,0,1,0,0,1,0,0,0,1,0
1,1,0,1,1,1,1,0,0,0,0,1,0
0,1,1,0,0,0,0,1,1,0,0,0,1
0,1,1,0,1,1,0,0,1,0,1,0,1
2,0,1,0,0,1,0,0,1,0,1,1,0
0,1,1,0,0,1,1,0,1,1,0,0,1
0,1,0,1,0,0,0,0,0,1,0,0,1
1,1,0,1,0,1,0,1,1,0,0,0,0
0,1,0,0,1,0,0,0,0,0,0,0,1
1,1,0,1,0,0,1,0,1,0,1,0,0
0,0,0,0,1,0,0,0,1,1,0,0,1
0,1,1,0,1,1,0,0,0,1,0,0,1
0,1,0,1,0,1,1,0,0,0,1,0,1
0,1,1,0,0,0,0,1,1,0,0,0,1
0,1,0,1,0,0,0,0,1,1,0,0,1
0,1,1,0,1,0,0,0,1,1,0,0,1
2,1,1,0,0,0,0,0,1,0,0,0,0
2,0,1,0,0,0,0,1,1,0,0,0,0
2,1,1,0,1,0,1,0,0,1,0,1,0
1,1,0,1,1,0,1,0,0,1,0,0,0
0,1,0,1,1,1,1,0,0,0,1,0,1
0,1,0,0,1,0,0,1,0,1,0,0,1
0,1,0,1,1,0,0,1,0,0,1,0,1
0,0,1,0,1,0,0,0,0,0,0,0,1
0,0,0,1,0,0,0,1,1,1,0,0,1
0,1,1,0,1,0,0,0,0,0,1,0,1
1,1,0,1,1,0,1,0,1,1,0,1,0
2,0,1,0,1,0,0,0,1,1,0,1,0
1,1,0,0,0,1,0,0,1,0,1,1,0
2,1,0,1,1,0,1,0,0,0,0,0,0
2,1,1,0,0,1,0,0,1,0,0,0,0
2,1,1,0,0,1,1,0,1,0,1,0,0
1,1,0,0,1,1,1,0,1,0,1,0,0
0,1,0,1,1,0,0,1,0,1,0,0,1
1,0,1,0,1,1,1,0,0,0,1,1,0
1,1,0,1,1,1,1,0,0,0,1,0,0
2,1,1,0,1,0,0,0,0,1,0,1,0
1,1,0,0,0,0,0,0,0,0,1,1,0
2,1,1,0,0,1,0,1,0,0,1,1,0
1,1,0,1,1,0,0,0,0,0,0,1,0
1,0,0,0,1,0,0,0,0,0,0,0,0
1,1,0,1,0,0,1,0,1,0,1,1,0
0,1,0,0,0,0,0,0,0,1,0,0,1
2,1,1,0,1,0,0,1,1,1,0,0,0
0,0,0,0,0,0,0,0,0,0,0,0,1
0,1,0,1,0,0,0,0,0,1,0,0,1
1,0,0,0,0,1,0,0,1,1,0,0,0
0,0,1,0,1,1,0,0,0,0,0,0,1
2,1,1,0,1,1,1,0,0,1,0,1,0
1,1,0,1,1,1,0,0,1,0,0,0,0
0,1,1,0,1,0,0,1,0,0,0,0,1
1,0,0,1,1,1,1,0,1,0,1,0,0
0,1,0,1,1,1,0,1,1,1,0,0,1
1,0,0,1,1,0,1,0,1,1,0,1,0
1,1,0,1,0,1,0,0,0,1,0,1,0
2,1,0,0,1,0,0,0,0,0,1,0,0
2,0,1,0,1,0,0,1,1,0,1,1,0
2,1,0,0,0,1,0,1,1,1,0,1,0
0,0,0,1,0,1,1,0,0,0,0,0,1
0,1,1,0,1,0,0,0,0,0,1,0,1
2,1,0,0,0,0,0,1,0,1,0,0,0
2,1,1,0,1,1,0,0,0,1,0,0,0
2,1,1,0,1,0,0,0,0,1,0,1,0
0,1,1,0,0,1,1,0,1,0,0,0,1
1,1,0,1,1,0,1,0,1,0,1,1,0
1,0,0,1,0,1,0,1,0,0,0,1,0
2,1,0,0,1,0,1,0,0,0,1,1,0
1,0,0,1,1,1,0,1,0,1,0,1,0
2,1,1,0,1,0,0,1,0,0,1,0,0
0,1,1,0,0,0,0,1,0,0,0,0,1
1,0,0,1,0,1,1,0,1,1,0,0,0
1,1,0,1,1,0,0,0,1,0,0,1,0
2,1,0,0,1,1,0,0,1,1,0,0,0
1,1,0,1,1,1,1,0,1,1,0,0,0
1,1,0,1,1,0,0,0,0,0,1,0,0
0,1,0,1,0,1,0,0,1,1,0,0,1
0,1,1,0,1,0,0,0,1,0,0,0,1
2,1,1,0,0,1,0,0,1,0,0,0,0
1,1,0,1,1,0,1,0,1,1,0,1,0
0,1,1,0,0,1,1,0,1,0,0,0,1
0,1,1,0,1,0,0,1,0,0,0,0,1
0,0,0,1,1,1,1,0,0,0,0,0,1
0,1,1,0,0,1,1,0,0,1,0,0,1
1,1,0,0,0,0,0,1,1,0,1,1,0
1,0,0,0,1,0,0,1,0,0,1,0,0
0,0,1,0,0,1,1,0,0,0,1,0,1
1,0,0,1,0,1,1,0,0,1,0,0,0
0,0,0,0,1,1,1,0,1,0,0,0,1
2,1,0,1,1,0,1,0,0,1,0,0,0
2,1,1,0,0,0,0,1,0,1,0,0,0
1,1,0,1,1,1,0,1,1,0,0,0,0
1,0,0,1,1,0,1,0,0,0,0,0,0
1,0,0,1,0,0,0,0,0,0,0,0,0
0,0,0,1,1,0,0,0,0,0,0,0,1
2,1,1,0,1,0,0,0,0,0,1,0,0
2,1,1,0,1,0,1,0,0,1,0,0,0
1,1,1,0,1,1,1,0,1,0,1,1,0
2,1,0,0,0,0,0,0,0,0,1,1,0
2,0,1,0,0,0,1,0,1,0,0,0,0
0,0,1,0,0,0,0,0,0,1,0,0,1
0,1,0,0,1,1,1,0,0,1,0,0,1
2,0,1,0,1,0,0,0,1,0,1,1,0
1,0,1,0,0,1,1,0,1,0,1,1,0
0,0,0,1,0,1,0,1,1,0,1,0,1
2,1,1,0,0,1,0,1,0,0,1,1,0
0,1,0,1,0,0,0,1,1,1,0,0,1
2,0,1,0,1,0,0,1,1,1,0,1,0
2,1,1,0,1,1,0,1,1,1,0,0,0
0,0,1,0,1,0,1,0,0,0,1,0,1
0,0,1,0,1,0,0,0,1,1,0,0,1
2,1,0,0,1,1,1,0,0,1,0,1,0
0,0,0,0,0,0,0,0,0,0,0,0,1
2,1,0,0,0,0,0,1,0,1,0,1,0
2,1,1,0,1,1,1,0,0,1,0,0,0
1,0,0,0,1,0,1,0,1,1,0,0,0
0,0,0,0,0,0,0,1,1,1,0,0,1
0,1,0,1,0,0,1,0,1,0,1,0,1
2,1,1,0,0,0,0,0,1,0,1,0,0
0,1,1,0,1,0,0,0,0,0,1,0,1
2,0,1,0,1,0,1,0,0,0,0,0,0
0,0,0,1,0,1,0,0,1,0,0,0,1
0,0,0,0,1,1,1,0,1,0,1,0,1
2,1,0,1,0,1,0,1,0,0,1,0,0
0,1,1,0,1,1,0,1,0,1,0,0,1
2,1,0,0,1,1,0,0,1,0,0,0,0
1,0,1,0,0,0,1,0,1,0,1,1,0
0,1,1,0,1,1,1,0,1,1,0,0,1
1,1,0,1,1,1,0,0,0,1,0,1,0
2,0,1,0,1,0,0,0,1,0,1,0,0
1,1,0,1,0,1,1,0,0,1,0,1,0
1,1,0,1,1,1,0,0,1,0,1,0,0
1,1,0,1,0,1,0,1,0,0,1,0,0
0,1,0,1,1,1,0,0,1,0,0,0,1
2,0,1,0,1,1,1,0,0,1,0,1,0
1,0,0,0,0,1,0,0,1,0,1,0,0
0,0,0,1,1,0,0,0,0,0,1,0,1
2,0,1,0,1,0,0,0,0,1,0,0,0
0,1,1,0,0,1,1,0,1,0,1,0,1
0,1,1,0,1,1,1,0,0,0,0,0,1
2,0,1,0,1,0,0,0,0,0,1,1,0
2,0,1,0,0,1,1,0,1,1,0,1,0
1,0,1,0,0,0,1,0,1,1,0,0,0
2,1,1,0,0,0,0,1,0,1,0,1,0
1,1,0,1,0,1,0,0,0,0,1,1,0
0,0,0,1,0,1,0,1,0,0,1,0,1
1,0,0,1,0,0,0,0,1,0,1,0,0
0,0,0,0,1,1,0,0,0,0,0,0,1
2,1,0,1,1,1,0,1,1,0,0,0,0
0,0,0,0,1,1,1,0,1,0,0,0,1
2,1,1,0,1,0,0,0,0,0,0,0,0
2,1,1,0,0,1,1,0,1,0,0,0,0
2,1,1,0,0,1,0,1,0,0,0,1,0
1,0,1,0,0,0,1,0,1,1,0,1,0
2,0,1,0,1,0,0,1,1,1,0,1,0
1,0,0,1,0,0,0,0,0,0,1,0,0
0,0,1,0,0,1,0,0,0,0,1,0,1
1,1,0,0,1,1,0,0,1,1,0,0,0
0,1,1,0,1,1,0,0,0,0,0,0,1
0,0,0,1,1,0,0,0,0,1,0,0,1
0,0,1,0,0,0,1,0,0,0,0,0,1
2,1,1,0,1,1,0,1,0,0,1,0,0
0,1,1,0,0,1,1,0,0,0,0,0,1
0,0,1,0,0,1,0,1,1,0,0,0,1
2,0,1,0,0,1,0,0,0,0,1,0,0
2,1,1,0,0,0,1,0,1,0,1,0,0
2,1,0,0,0,0,1,0,0,0,0,0,0
0,0,1,0,0,0,0,0,0,0,1,0,1
1,0,0,1,0,1,1,0,0,0,0,0,0
1,0,0,1,0,1,1,0,0,1,0,0,0
2,0,1,0,1,1,1,0,0,0,1,0,0
0,1,0,0,0,0,1,0,1,0,1,0,1
2,1,1,0,0,0,1,0,0,1,0,0,0
2,0,1,0,0,0,0,1,1,1,0,0,0
2,1,0,0,0,1,0,1,1,0,0,0,0
2,1,1,0,1,0,0,0,0,0,1,1,0
0,1,0,0,0,1,1,0,0,1,0,0,1
1,0,0,1,0,1,1,0,1,1,0,0,0
2,1,0,1,0,0,1,0,0,1,0,1,0
2,1,0,0,1,1,1,0,1,0,1,0,0
0,0,1,0,0,1,0,1,1,1,0,0,1
1,1,0,1,0,1,0,0,0,1,0,0,0
2,1,1,0,0,0,0,1,1,1,0,1,0
0,0,1,0,0,0,0,1,0,1,0,0,1
0,1,1,0,0,1,1,0,0,1,0,0,1
1,0,0,0,0,1,1,0,0,0,0,0,0
0,0,0,1,0,1,0,1,0,0,1,0,1
0,1,0,1,0,1,0,0,1,0,0,0,1
2,1,1,0,1,0,0,0,0,0,1,0,0
1,1,0,1,1,0,1,0,1,0,0,0,0
0,0,0,0,0,1,1,0,0,0,1,0,1
2,0,1,0,0,1,1,0,0,1,0,1,0
2,1,0,0,1,1,0,1,1,0,0,0,0
0,1,0,1,1,1,1,0,1,0,1,0,1
0,1,1,0,1,0,1,0,0,0,0,0,1
0,0,0,1,0,1,0,0,0,0,0,0,1
1,1,0,1,0,1,0,0,1,0,0,0,0
2,1,0,1,0,0,0,1,1,1,0,1,0
1,0,0,1,1,0,1,0,0,0,0,1,0
0,1,0,1,1,1,1,0,0,1,0,0,1
0,1,0,1,0,0,0,0,0,0,1,0,1
2,1,1,0,0,1,1,0,1,0,1,0,0
0,1,0,1,1,0,0,1,0,1,0,0,1
0,0,0,1,1,0,0,1,0,0,0,0,1
2,1,0,0,0,0,0,0,1,0,0,1,0
2,1,0,1,0,1,0,1,0,0,0,0,0
1,1,0,1,1,1,1,0,1,1,0,1,0
1,0,0,1,0,0,0,0,0,0,0,1,0
0,1,1,0,1,1,1,0,1,0,1,0,1
1,1,0,1,0,0,1,0,1,1,0,0,0
2,1,1,0,0,1,1,0,0,1,0,1,0
0,1,0,1,0,0,0,0,0,0,1,0,1
0,1,1,0,1,1,1,0,0,1,0,0,1
0,1,1,0,1,0,0,0,0,1,0,0,1
0,0,1,0,0,1,1,0,0,0,0,0,1
1,0,0,1,1,0,0,0,1,0,0,0,0
0,1,0,1,1,0,0,1,1,0,0,0,1
0,1,1,0,1,0,0,0,1,0,1,0,1
2,1,1,0,0,0,0,1,1,1,0,0,0
2,1,1,0,0,0,1,0,1,1,0,0,0
2,1,1,0,0,1,0,0,0,1,0,1,0
0,0,0,1,0,1,0,0,1,1,0,0,1
2,1,0,1,0,0,0,0,1,1,0,0,0
2,1,1,0,1,0,1,0,1,0,0,0,0
2,1,1,0,0,1,0,1,1,0,0,0,0
0,1,0,0,1,1,1,0,1,0,1,0,1
2,1,0,1,0,0,0,1,0,0,0,0,0
2,1,1,0,0,0,0,0,1,0,1,1,0
1,1,0,1,1,0,1,0,1,1,0,0,0
2,0,1,0,0,1,1,0,0,0,0,1,0
0,1,0,0,1,0,0,1,0,0,1,0,1
0,0,0,1,1,0,0,1,0,1,0,0,1
0,1,1,0,0,0,0,0,0,1,0,0,1
0,0,0,1,1,0,0,0,1,0,1,0,1
1,0,0,1,0,1,0,0,1,0,1,1,0
0,0,1,0,1,1,0,1,1,0,0,0,1
0,1,1,0,1,0,0,0,1,0,1,0,1
0,0,0,0,0,0,1,0,0,0,1,0,1
0,1,0,1,0,0,1,0,1,1,0,0,1
1,0,0,1,1,1,0,1,0,1,0,1,0
2,0,1,0,1,1,0,1,0,0,0,1,0
1,0,0,0,1,1,0,1,1,0,0,1,0
2,1,1,0,0,0,0,0,1,1,0,0,0
1,0,1,0,0,1,0,1,0,0,1,1,0
1,1,0,1,0,0,0,1,0,0,0,0,0
1,1,0,1,0,0,0,1,0,1,0,1,0
0,0,0,1,1,1,0,0,1,0,1,0,1
1,0,0,0,1,0,0,1,1,1,0,1,0
0,1,0,0,0,0,1,0,0,1,0,0,1
2,1,0,0,1,0,0,0,1,1,0,1,0
0,1,1,0,1,1,0,0,0,0,1,0,1
0,1,1,0,0,0,0,1,0,1,0,0,1
2,0,1,0,1,1,0,0,0,0,1,0,0
2,1,0,1,0,0,0,1,0,0,1,0,0
2,1,1,0,0,1,1,0,1,0,0,0,0
1,0,1,0,1,1,1,0,1,0,0,0,0
1,1,0,1,1,0,1,0,0,0,1,0,0
2,1,1,0,0,1,0,0,1,1,0,0,0
1,0,0,1,0,1,0,0,1,0,1,1,0
1,0,0,0,0,0,1,0,1,1,0,0,0
1,0,0,0,0,1,0,0,1,0,1,0,0
1,0,1,0,0,0,1,0,1,0,1,1,0
2,1,1,0,0,0,0,0,0,0,0,1,0
1,0,0,1,1,1,0,1,0,1,0,0,0
1,1,0,1,0,0,0,0,0,0,0,1,0
2,1,1,0,0,0,1,0,1,0,1,0,0
0,0,1,0,1,0,0,0,1,0,0,0,1
1,0,0,1,0,0,1,0,0,1,0,1,0
0,1,0,1,1,0,0,1,1,1,0,0,1
2,1,0,1,1,0,0,0,0,0,1,0,0
1,1,0,1,0,0,0,1,0,1,0,0,0
0,0,1,0,0,1,1,0,1,0,0,0,1
2,1,1,0,1,0,0,0,1,0,1,0,0
2,1,1,0,1,0,0,0,0,1,0,0,0
0,1,1,0,0,0,0,1,1,1,0,0,1
1,1,0,1,0,1,1,0,1,0,0,0,0
0,1,0,1,1,0,0,1,0,0,0,0,1
1,1,0,0,1,1,0,0,0,0,0,0,0
2,1,1,0,1,0,0,0,0,0,0,0,0
1,0,0,1,1,0,0,0,0,1,0,1,0
1,0,0,1,0,1,0,0,0,0,1,1,0
0,0,0,1,0,1,1,0,0,1,0,0,1
0,1,0,1,1,1,1,0,1,1,0,0,1
0,1,0,0,0,1,1,0,1,0,0,0,1
2,1,0,0,0,1,1,0,1,1,0,1,0
0,1,0,1,1,1,0,1,0,0,1,0,1
1,1,0,1,1,1,0,0,1,0,1,1,0
0,1,1,0,0,0,0,0,1,0,1,0,1
0,0,0,1,0,1,0,0,0,0,0,0,1
1,0,0,1,0,0,1,0,0,0,0,1,0
1,0,0,0,0,1,1,0,0,1,0,1,0
2,1,0,1,1,0,0,0,0,0,1,0,0
1,1,0,0,1,1,0,1,1,0,1,0,0
0,1,0,1,0,1,0,0,0,1,0,0,1
1,1,0,1,0,0,1,0,0,0,0,0,0
0,1,0,0,0,0,0,0,0,1,0,0,1
2,1,0,0,1,1,0,1,1,0,1,1,0
2,1,1,0,0,1,0,1,0,1,0,0,0
1,1,0,0,0,0,1,0,1,1,0,0,0
0,0,0,1,1,0,0,0,1,0,0,0,1
0,1,1,0,1,0,0,1,0,0,0,0,1
1,1,0,1,0,0,0,0,1,0,1,1,0
2,1,1,0,0,1,0,0,0,1,0,1,0
1,1,0,0,0,1,1,0,1,1,0,1,0
1,0,0,1,1,1,0,1,1,0,1,1,0
0,1,0,1,0,0,1,0,1,1,0,0,1
1,0,0,1,0,1,0,1,1,1,0,0,0
2,1,1,0,1,0,0,1,0,0,1,0,0
1,0,1,0,1,0,1,0,1,0,0,1,0
0,1,1,0,1,1,0,0,1,0,1,0,1
0,1,1,0,1,1,0,0,0,1,0,0,1
1,0,0,0,0,1,0,0,1,0,0,0,0
2,1,0,1,0,0,1,0,0,0,0,0,0
0,1,0,0,1,1,1,0,1,1,0,0,1
1,0,0,0,1,1,0,1,1,0,1,1,0
1,1,1,0,0,1,1,0,1,0,0,1,0
0,0,1,0,0,1,0,0,1,0,0,0,1
0,0,1,0,1,1,0,0,0,1,0,0,1
1,0,0,1,0,1,0,1,1,0,1,1,0
2,0,1,0,1,1,0,0,0,1,0,1,0
0,0,0,1,0,0,0,1,1,1,0,0,1
0,1,0,1,0,0,0,1,0,1,0,0,1
2,1,1,0,0,1,0,0,0,1,0,1,0
1,1,0,1,0,0,0,0,1,0,0,1,0
0,1,1,0,1,0,0,0,1,0,0,0,1
0,1,1,0,0,1,0,1,0,1,0,0,1
1,1,0,0,1,1,0,0,1,0,1,1,0
2,0,1,0,0,0,0,0,1,1,0,1,0
0,1,1,0,1,0,0,1,0,1,0,0,1
2,1,1,0,0,1,0,1,1,0,1,1,0
2,1,1,0,1,1,0,0,1,0,0,0,0
1,0,0,1,0,0,0,0,0,1,0,0,0
1,1,0,1,1,0,0,1,0,1,0,0,0
2,1,1,0,0,1,0,0,0,0,1,0,0
2,1,1,0,1,0,1,0,0,0,0,0,0
2,1,0,1,1,0,0,1,1,0,1,0,0
1,0,0,1,0,0,0,0,0,0,1,0,0
0,1,1,0,0,1,0,1,0,0,1,0,1
2,1,1,0,1,0,0,1,0,0,0,0,0
0,0,0,1,0,0,0,0,0,0,1,0,1
1,0,1,0,1,0,1,0,1,1,0,0,0
1,1,0,1,1,1,0,1,1,1,0,0,0
0,1,0,1,1,1,0,1,0,1,0,0,1
2,0,1,0,0,1,0,1,1,0,1,0,0
0,0,0,1,1,1,0,1,1,0,1,0,1
2,1,1,0,1,0,0,0,0,0,0,1,0
2,1,1,0,1,1,0,1,1,0,0,1,0
0,1,0,0,0,1,0,1,1,1,0,0,1
2,1,1,0,1,1,1,0,0,1,0,1,0
1,1,0,1,1,1,0,0,1,0,0,0,0
0,0,0,1,1,1,1,0,0,0,1,0,1
1,0,0,0,0,0,0,1,0,0,0,0,0
1,1,0,0,1,0,0,0,0,0,1,1,0
1,0,0,1,0,0,0,1,0,1,0,0,0
0,1,1,0,0,1,1,0,1,0,0,0,1
0,1,1,0,1,0,0,1,1,0,0,0,1
2,1,1,0,0,1,1,0,0,1,0,0,0
1,0,0,1,1,1,0,1,1,0,1,0,0
0,0,0,1,1,0,0,1,0,0,0,0,1
0,0,0,1,1,0,0,0,1,0,0,0,1
1,0,0,0,1,0,0,1,1,1,0,1,0
1,0,0,1,1,1,0,0,0,0,0,0,0
2,1,1,0,0,0,0,1,0,0,0,0,0
1,1,0,0,1,1,0,0,0,0,0,1,0
0,1,1,0,1,0,1,0,0,0,1,0,1
2,1,1,0,0,1,0,0,0,0,0,1,0
1,1,0,1,1,0,0,1,1,0,0,1,0
0,1,0,0,1,1,0,0,0,0,1,0,1
0,1,0,0,0,0,0,1,0,0,0,0,1
1,1,0,1,1,0,0,1,0,0,1,1,0
1,0,0,1,0,1,0,1,1,0,1,0,0
2,0,1,0,1,0,0,0,1,0,0,0,0
2,1,0,1,0,1,0,1,0,0,0,0,0
0,1,0,1,0,0,0,1,0,0,0,0,1
1,1,0,1,1,1,1,0,0,1,0,1,0
1,1,0,1,1,1,1,0,1,0,1,0,0
2,1,0,0,0,1,0,0,1,0,1,0,0
2,0,1,0,1,0,1,0,0,1,0,1,0
0,1,1,0,0,0,0,0,1,0,1,0,1
2,1,1,0,0,0,0,1,0,0,0,0,0
2,0,1,0,0,1,0,0,0,1,0,0,0
1,0,0,1,0,0,1,0,0,0,0,0,0
0,0,0,0,0,0,0,1,0,0,1,0,1
2,0,1,0,0,0,0,0,0,0,1,0,0
0,1,0,1,1,1,0,0,1,0,0,0,1
0,1,0,1,1,0,1,0,0,1,0,0,1
2,1,1,0,0,1,0,1,1,0,0,0,0
2,1,0,0,1,0,0,1,0,1,0,1,0
2,1,1,0,0,0,0,0,0,1,0,1,0
1,0,1,0,1,1,1,0,1,0,1,0,0
2,0,1,0,0,1,1,0,1,1,0,1,0
2,0,1,0,0,0,0,0,0,0,0,1,0
1,1,0,1,0,0,0,1,0,0,1,1,0
1,1,0,1,0,0,0,1,1,0,0,1,0
0,1,0,1,0,1,0,1,1,0,1,0,1
2,1,1,0,0,0,1,0,0,0,1,0,0
2,1,1,0,0,0,1,0,1,0,1,0,0
1,0,0,1,1,1,1,0,1,1,0,0,0
1,1,0,1,1,1,0,0,0,1,0,1,0
0,1,0,1,0,0,1,0,1,1,0,0,1
2,1,0,0,1,0,0,0,1,1,0,0,0
1,1,0,1,1,0,0,1,1,0,1,1,0
2,1,0,0,0,0,0,1,0,0,0,0,0
1,1,1,0,1,0,1,0,1,0,1,1,0
0,1,0,1,1,1,1,0,0,0,0,0,1
1,0,0,0,1,1,1,0,0,1,0,0,0
0,1,0,1,1,0,0,0,0,1,0,0,1
1,1,0,0,0,0,0,0,1,0,1,1,0
1,0,0,0,1,0,0,1,0,1,0,1,0
1,1,0,1,1,1,1,0,1,0,1,0,0
1,1,0,0,0,1,1,0,1,0,1,1,0
1,0,0,1,0,0,0,1,1,1,0,0,0
2,1,0,0,0,1,1,0,1,1,0,0,0
2,1,0,1,1,0,0,0,0,0,0,0,0
2,1,1,0,0,1,0,1,1,0,1,0,0
2,1,0,1,0,0,1,0,0,1,0,1,0
2,1,0,1,0,0,0,0,1,0,1,0,0
0,1,1,0,1,0,1,0,1,0,0,0,1
1,0,0,1,0,0,0,0,1,0,1,1,0
1,0,0,1,0,0,1,0,1,1,0,0,0
2,1,0,0,1,1,0,1,0,0,1,1,0
0,1,0,1,0,0,0,0,0,0,0,0,1
1,1,0,1,0,1,0,0,1,0,1,1,0
2,1,1,0,1,0,0,0,0,1,0,0,0
2,1,1,0,0,1,0,0,0,0,0,1,0
2,1,1,0,1,1,0,0,0,0,0,0,0
1,0,1,0,1,1,1,0,0,0,0,1,0
2,1,1,0,0,0,0,0,1,1,0,0,0
1,0,0,1,1,1,0,0,1,1,0,0,0
2,1,1,0,1,1,0,0,0,1,0,1,0
0,1,0,1,1,1,1,0,1,0,0,0,1
1,0,1,0,0,1,0,0,1,0,1,1,0
0,0,1,0,1,0,0,0,1,0,0,0,1
1,0,0,0,1,0,1,0,1,0,1,0,0
2,1,1,0,1,1,0,1,0,0,0,0,0
2,1,0,0,0,1,1,0,0,0,1,0,0
1,0,1,0,1,1,0,0,0,0,0,1,0
0,1,1,0,1,1,1,0,1,1,0,0,1
0,1,0,1,0,1,0,0,0,0,1,0,1
2,1,1,0,0,1,0,0,0,1,0,1,0
2,1,0,0,1,0,0,0,0,0,0,1,0
0,1,0,1,1,1,1,0,1,1,0,0,1
1,1,0,1,0,0,0,0,1,0,1,1,0
0,1,0,0,0,0,0,1,1,1,0,0,1
0,0,1,0,1,1,0,1,0,1,0,0,1
0,1,0,1,0,0,1,0,0,0,0,0,1
2,1,1,0,0,0,0,0,1,1,0,0,0
2,1,0,0,0,0,0,0,0,0,0,0,0
2,1,0,0,0,1,0,0,1,0,1,0,0
2,1,1,0,0,0,0,0,0,0,1,0,0
2,1,1,0,1,1,0,0,0,0,1,0,0
0,1,0,1,1,0,0,0,0,1,0,0,1
2,0,1,0,0,1,0,1,0,1,0,0,0
2,1,1,0,0,0,1,0,1,1,0,1,0
2,1,0,1,1,0,1,0,0,0,0,0,0
1,1,0,1,0,1,1,0,0,1,0,1,0
2,1,1,0,0,0,0,0,1,1,0,0,0
2,1,0,0,0,0,0,0,0,1,0,0,0
2,1,1,0,0,1,0,1,0,0,1,0,0
1,0,1,0,1,0,0,1,1,0,1,1,0
0,0,1,0,0,0,0,1,1,0,1,0,1
0,1,0,1,0,0,0,1,1,0,0,0,1
2,1,0,0,0,1,1,0,0,1,0,1,0
0,1,0,1,0,1,0,1,0,0,0,0,1
2,1,1,0,0,0,0,1,1,1,0,0,0
1,1,0,1,0,0,0,0,0,0,1,0,0
2,1,0,1,1,1,0,1,0,0,1,0,0
2,1,0,0,0,1,0,1,1,0,0,0,0
2,1,1,0,0,0,0,1,0,1,0,1,0
1,0,0,0,1,1,1,0,1,0,0,0,0
0,0,0,1,0,1,0,0,0,1,0,0,1
2,0,1,0,0,1,0,1,1,1,0,0,0
1,0,0,0,0,0,0,1,1,0,1,1,0
2,1,1,0,1,1,1,0,0,0,0,0,0
1,0,0,1,0,1,0,1,1,0,1,0,0
1,1,0,1,1,1,0,1,0,1,0,0,0
1,0,0,1,0,1,1,0,0,1,0,1,0
2,0,1,0,1,0,0,1,0,0,0,0,0
0,0,0,0,1,0,1,0,0,0,0,0,1
2,1,0,1,1,0,0,0,0,1,0,1,0
0,1,0,1,0,0,0,1,1,0,1,0,1
2,1,1,0,0,1,0,1,0,1,0,1,0
2,1,1,0,0,0,1,0,0,0,0,1,0
2,1,1,0,0,1,0,1,1,0,1,0,0
1,1,0,1,1,1,1,0,0,0,0,1,0
2,1,1,0,0,1,0,0,1,0,0,1,0
0,1,1,0,0,0,1,0,0,1,0,0,1
1,1,1,0,1,1,0,0,1,0,0,1,0
1,0,0,1,1,1,0,1,1,1,0,0,0
1,0,1,0,1,1,0,0,1,0,1,1,0
2,0,1,0,1,1,1,0,0,0,0,0,0
2,0,1,0,0,0,0,1,0,1,0,0,0
1,1,0,1,1,1,1,0,1,1,0,1,0
1,1,1,0,1,1,1,0,1,0,0,0,0
2,1,1,0,0,1,1,0,1,1,0,1,0
0,0,0,0,1,0,0,1,0,0,1,0,1
2,1,0,0,0,1,0,0,1,1,0,1,0
2,1,0,1,0,0,0,0,0,1,0,1,0
0,1,0,1,0,0,0,1,1,0,0,0,1
2,1,0,0,0,1,0,1,0,0,1,0,0
0,1,0,1,0,0,1,0,1,1,0,0,1
2,1,1,0,1,1,1,0,1,0,1,0,0
0,1,0,0,0,0,0,1,1,0,0,0,1
2,1,1,0,1,0,1,0,0,0,1,1,0
2,1,1,0,1,0,0,0,1,1,0,1,0
2,0,1,0,1,0,0,1,1,0,1,0,0
0,1,0,1,1,0,0,1,1,0,1,0,1
1,1,0,1,1,0,0,0,1,0,1,1,0
1,0,0,0,0,0,0,1,0,0,0,0,0
2,1,0,1,0,0,0,0,0,0,1,0,0
0,1,0,0,1,1,0,1,0,0,1,0,1
2,0,1,0,1,0,0,1,1,1,0,1,0
1,0,1,0,0,1,0,0,1,0,1,0,0
1,0,0,1,1,0,0,1,0,1,0,0,0
0,1,0,1,0,0,0,1,1,1,0,0,1
2,1,1,0,1,0,0,0,1,0,0,1,0
1,1,1,0,1,1,0,0,1,0,1,1,0
2,1,0,0,0,0,0,1,0,0,1,0,0
2,1,1,0,0,0,1,0,0,0,0,0,0
2,0,1,0,1,1,0,0,0,1,0,1,0
1,0,0,1,1,1,0,0,1,1,0,1,0
2,1,0,0,1,0,0,0,0,1,0,0,0
0,0,0,1,1,0,0,0,0,1,0,0,1
1,1,0,0,1,0,1,0,1,0,0,1,0
0,1,0,0,0,0,0,0,0,0,0,0,1
0,0,0,0,0,0,0,0,0,0,0,0,1
1,1,0,1,1,1,1,0,0,0,1,1,0
0,0,1,0,0,1,1,0,0,1,0,0,1
0,0,0,1,0,0,0,1,1,0,0,0,1
0,1,0,1,1,1,1,0,0,1,0,0,1
1,1,0,0,0,0,0,1,0,0,1,1,0
0,0,0,1,1,0,0,1,0,0,1,0,1
2,1,1,0,1,1,0,1,0,1,0,0,0
2,1,0,0,1,1,0,1,1,0,0,0,0
0,1,0,1,0,1,1,0,1,1,0,0,1
2,0,1,0,0,1,0,0,1,1,0,0,0
2,1,0,1,0,0,0,1,1,0,0,0,0
2,1,1,0,1,0,0,0,0,1,0,0,0
2,1,0,0,1,1,1,0,0,1,0,1,0
2,0,1,0,1,1,1,0,1,1,0,1,0
0,1,0,1,0,1,1,0,1,0,0,0,1
1,1,0,1,0,1,0,1,0,1,0,0,0
1,1,0,1,1,0,0,0,1,0,0,1,0
1,0,1,0,0,1,1,0,1,0,0,0,0
0,0,0,1,0,0,0,0,0,1,0,0,1
2,1,1,0,0,1,0,0,0,1,0,0,0
0,0,1,0,0,1,0,0,0,1,0,0,1
0,0,0,1,0,1,1,0,0,0,0,0,1
0,1,0,1,0,0,0,0,1,0,1,0,1
1,0,0,1,0,1,0,0,0,1,0,0,0
2,1,1,0,1,0,1,0,0,0,1,1,0
1,1,0,1,0,1,0,0,0,1,0,1,0
0,1,1,0,1,1,0,0,1,0,1,0,1
0,1,0,0,1,0,0,1,0,0,0,0,1
1,0,1,0,1,0,1,0,1,0,1,1,0
0,0,1,0,1,0,0,0,1,0,0,0,1
1,1,0,1,1,1,0,0,1,1,0,0,0
0,0,0,1,0,0,0,0,1,1,0,0,1
0,1,0,1,1,0,1,0,0,0,0,0,1
1,0,0,0,0,1,1,0,1,1,0,0,0
0,1,1,0,1,0,0,0,0,0,1,0,1
0,1,1,0,0,0,0,0,1,0,1,0,1
2,1,1,0,0,1,0,1,0,0,1,1,0
2,1,0,0,0,1,0,0,1,1,0,0,0
1,1,0,1,0,1,0,0,1,0,1,0,0
2,1,0,0,0,1,1,0,0,0,1,0,0
1,1,1,0,0,1,1,0,0,0,1,1,0
0,1,1,0,1,0,0,0,1,0,1,0,1
2,0,1,0,1,0,0,1,0,0,1,1,0
0,1,0,1,0,0,0,1,0,0,1,0,1
0,1,0,0,1,0,0,1,1,0,1,0,1
0,1,0,0,1,1,0,0,1,0,1,0,1
1,1,0,1,1,0,1,0,0,1,0,1,0
2,1,0,0,0,0,1,0,0,0,0,0,0
2,0,1,0,0,1,1,0,0,0,0,0,0
2,1,1,0,0,1,1,0,0,1,0,0,0
1,1,0,1,0,1,0,1,0,0,0,1,0
0,1,0,1,0,1,0,1,0,0,1,0,1
2,0,1,0,0,1,0,1,0,1,0,0,0
0,1,0,1,0,0,1,0,0,0,1,0,1
1,0,0,1,0,1,1,0,0,1,0,0,0
1,1,0,1,1,0,0,0,1,0,1,1,0
2,1,1,0,1,0,1,0,0,0,1,1,0
2,1,0,0,1,0,1,0,0,1,0,0,0
0,0,0,0,1,1,1,0,1,1,0,0,1
1,1,0,1,1,1,0,0,1,0,0,0,0
2,1,1,0,1,0,1,0,0,1,0,1,0
2,1,0,0,1,1,1,0,1,0,1,0,0
1,1,0,1,0,0,0,0,1,0,1,0,0
2,1,0,0,1,0,0,0,1,0,1,0,0
2,0,1,0,1,0,0,1,1,0,1,0,0
2,1,0,1,0,0,0,0,0,0,1,0,0
1,1,0,1,1,1,1,0,0,0,1,0,0
2,1,1,0,1,0,0,0,1,0,1,0,0
1,0,1,0,0,1,0,0,0,0,0,1,0
2,0,1,0,0,0,0,1,1,1,0,1,0
0,0,0,1,0,1,0,1,0,0,0,0,1
2,1,1,0,0,0,1,0,1,0,1,0,0
0,1,0,0,0,1,0,0,0,0,1,0,1
1,1,1,0,1,1,1,0,1,0,0,1,0
2,1,1,0,0,1,1,0,0,0,1,1,0
2,1,0,1,0,0,0,0,1,0,1,0,0
2,0,1,0,0,0,0,1,0,0,0,0,0
1,1,0,1,1,0,0,0,0,1,0,1,0
1,1,1,0,1,1,1,0,1,0,1,1,0
1,0,0,1,1,0,0,0,0,0,0,0,0
2,0,1,0,0,1,1,0,1,1,0,1,0
2,1,0,0,1,0,0,0,1,0,0,0,0
0,1,0,1,0,0,0,1,0,1,0,0,1
1,1,0,1,0,1,0,0,0,1,0,0,0
2,1,0,0,1,0,1,0,1,0,1,0,0
2,1,1,0,0,1,0,1,1,1,0,0,0
1,1,0,1,0,0,1,0,0,0,1,1,0
0,1,0,1,0,1,0,1,0,1,0,0,1
1,0,0,1,0,0,0,1,1,1,0,0,0
1,0,1,0,0,0,0,0,0,0,1,1,0
2,1,0,1,0,0,0,0,0,1,0,1,0
1,0,0,1,0,0,1,0,0,1,0,0,0
0,0,0,1,1,1,0,1,0,0,1,0,1
2,1,0,0,0,0,0,0,1,0,0,0,0
1,0,1,0,1,1,1,0,0,0,0,0,0
0,1,0,1,1,0,0,1,1,0,1,0,1
0,1,1,0,1,1,0,0,1,0,1,0,1
1,0,0,1,0,0,0,0,1,0,1,1,0
0,0,0,1,0,0,1,0,1,0,1,0,1
0,0,0,0,1,1,1,0,0,0,1,0,1
1,0,0,1,1,1,1,0,0,1,0,0,0
2,1,1,0,1,0,0,0,0,0,1,1,0
2,1,0,0,0,1,0,1,1,1,0,0,0
2,1,1,0,1,1,0,1,1,1,0,0,0
0,0,0,1,0,1,0,0,1,0,0,0,1
0,1,0,1,0,0,0,1,1,0,1,0,1
0,1,0,1,0,0,1,0,0,0,0,0,1
2,1,1,0,1,0,0,0,1,0,1,1,0
2,1,1,0,1,0,0,1,0,0,0,1,0
2,0,1,0,1,0,1,0,0,0,0,1,0
1,1,0,1,1,1,0,1,0,0,0,1,0
2,1,1,0,1,0,1,0,1,0,0,0,0
0,1,0,1,0,1,1,0,1,0,0,0,1
0,0,1,0,0,0,0,0,1,0,0,0,1
1,0,0,0,0,1,1,0,0,0,1,0,0
2,0,1,0,1,0,0,1,1,1,0,0,0
1,1,0,1,0,1,0,0,0,0,0,1,0
2,1,1,0,1,0,1,0,1,0,1,0,0
0,1,1,0,0,1,1,0,0,1,0,0,1
0,1,0,1,0,0,0,0,0,0,1,0,1
2,1,1,0,1,0,0,1,1,1,0,1,0
1,1,1,0,1,1,1,0,0,0,1,1,0
2,1,0,1,1,0,0,0,1,1,0,1,0
0,1,1,0,1,1,0,1,1,0,0,0,1
0,1,0,1,1,0,0,0,0,0,1,0,1
2,1,1,0,0,1,1,0,0,0,0,0,0
2,0,1,0,0,0,0,1,1,1,0,1,0
2,1,0,0,1,0,0,1,0,1,0,1,0
1,0,0,1,0,0,0,0,1,0,0,0,0
0,1,0,0,1,0,0,1,1,0,0,0,1
1,1,0,1,1,1,0,0,1,1,0,1,0
1,0,0,1,1,0,0,1,0,0,0,1,0
0,0,0,1,1,0,0,1,0,0,1,0,1
2,1,1,0,0,0,1,0,0,0,0,0,0
2,1,1,0,0,0,1,0,0,1,0,1,0
0,1,0,1,0,0,1,0,0,0,1,0,1
2,0,1,0,0,1,0,0,1,1,0,1,0
2,1,1,0,1,0,1,0,1,1,0,0,0
2,0,1,0,0,0,0,1,0,0,1,0,0
2,0,1,0,0,1,0,0,1,1,0,0,0
0,0,1,0,0,1,1,0,0,1,0,0,1
1,0,0,1,1,0,0,1,1,0,0,1,0
2,1,0,0,0,0,0,0,1,1,0,0,0
1,0,0,1,1,0,0,0,0,0,0,1,0
0,1,1,0,1,1,0,0,0,0,0,0,1
2,1,0,0,1,0,0,1,0,1,0,0,0
2,1,1,0,0,1,1,0,0,1,0,1,0
1,1,0,1,1,0,0,1,1,0,0,1,0
0,0,1,0,1,0,0,1,1,1,0,0,1
0,0,0,0,1,1,0,1,1,1,0,0,1
2,1,1,0,1,1,1,0,1,1,0,0,0
1,1,0,1,1,1,0,1,1,0,0,0,0
2,1,0,1,0,0,0,0,0,1,0,1,0
0,1,1,0,1,1,1,0,0,1,0,0,1
2,1,0,1,1,0,0,1,0,0,1,0,0
0,1,1,0,1,1,0,1,1,1,0,0,1
0,1,1,0,1,1,0,0,0,1,0,0,1
0,0,0,1,1,1,0,0,1,0,0,0,1
0,1,1,0,0,0,0,0,1,0,1,0,1
2,0,1,0,1,0,0,1,0,0,0,0,0
1,0,1,0,0,1,0,0,1,0,1,1,0
0,1,0,1,1,0,1,0,1,0,1,0,1
0,0,1,0,1,0,0,0,0,1,0,0,1
1,1,0,0,1,1,0,0,1,1,0,0,0
2,1,1,0,0,1,0,1,1,0,0,0,0
1,0,0,1,0,1,0,1,0,0,1,1,0
2,1,0,0,1,0,0,1,0,0,0,0,0
0,0,1,0,0,1,0,0,0,0,1,0,1
2,1,1,0,1,0,0,1,1,1,0,0,0
1,0,1,0,1,1,1,0,1,0,0,1,0
2,1,1,0,0,0,1,0,0,0,0,0,0
1,1,0,0,0,1,0,0,0,0,1,1,0
2,1,0,1,1,0,1,0,0,0,1,0,0
0,1,0,1,0,1,0,0,1,0,0,0,1
0,1,0,0,1,1,1,0,1,1,0,0,1
1,1,0,1,0,1,0,0,0,1,0,0,0
2,0,1,0,0,1,1,0,0,1,0,0,0
2,1,1,0,1,0,0,1,1,0,1,0,0
1,0,0,1,0,0,1,0,0,1,0,1,0
1,0,1,0,1,0,1,0,1,0,1,1,0
1,1,0,1,1,1,0,1,0,1,0,0,0
1,1,1,0,1,1,0,0,0,0,1,1,0
2,0,1,0,0,1,0,0,0,0,0,0,0
1,1,0,1,1,1,1,0,0,1,0,0,0
0,1,1,0,0,0,0,1,1,0,1,0,1
0,1,0,1,0,0,0,0,0,1,0,0,1
0,1,1,0,0,0,0,1,1,0,0,0,1
1,0,1,0,0,0,1,0,1,0,0,1,0
0,0,1,0,1,0,0,0,0,1,0,0,1
1,0,0,1,1,1,0,1,0,1,0,1,0
2,1,1,0,1,0,0,1,1,0,0,0,0
2,1,0,1,0,0,1,0,0,0,1,0,0
1,1,0,1,0,1,1,0,1,1,0,1,0
2,1,0,1,0,0,0,1,1,0,1,0,0
2,1,0,1,1,0,0,1,1,1,0,0,0
2,1,1,0,0,1,0,0,0,1,0,0,0
1,0,0,0,1,1,1,0,0,0,1,0,0
1,1,0,1,0,0,1,0,1,1,0,1,0
2,1,0,1,1,0,0,0,1,0,0,0,0
0,0,0,1,0,1,0,0,0,1,0,0,1
1,1,0,1,0,1,0,1,0,0,1,0,0
2,1,1,0,0,0,0,1,0,1,0,0,0
1,1,0,0,0,1,1,0,1,1,0,0,0
1,1,0,1,1,0,0,1,1,1,0,0,0
2,1,0,0,1,0,0,0,1,0,0,1,0
2,1,1,0,0,1,1,0,1,0,0,0,0
2,0,1,0,1,0,0,1,0,0,0,0,0
1,0,0,0,1,1,0,0,0,0,0,0,0
2,0,1,0,1,1,1,0,0,0,0,0,0
0,1,0,0,0,0,1,0,1,1,0,0,1
2,1,1,0,1,0,0,1,0,0,0,0,0
1,0,0,1,0,0,0,1,1,0,0,1,0
2,0,1,0,1,1,0,0,1,1,0,1,0
1,0,0,1,1,0,0,0,0,0,1,1,0
0,1,1,0,1,0,0,0,1,0,0,0,1
0,1,0,1,1,0,0,0,1,0,1,0,1
1,0,0,1,1,1,0,0,0,0,1,0,0
2,1,0,1,0,0,1,0,0,1,0,1,0
1,0,0,0,0,0,1,0,0,1,0,1,0
0,1,0,0,0,0,1,0,1,0,0,0,1
1,0,1,0,0,0,1,0,1,0,0,1,0
1,1,0,1,1,1,0,0,1,0,1,0,0
1,1,0,1,1,1,0,1,1,0,1,0,0
2,1,1,0,1,1,0,1,1,1,0,0,0
2,1,1,0,0,0,1,0,0,0,1,1,0
2,1,1,0,1,0,0,1,1,1,0,1,0
1,0,0,1,1,1,1,0,0,1,0,1,0
0,0,0,1,0,1,0,1,0,0,1,0,1
2,0,1,0,1,1,0,1,1,1,0,1,0
1,1,0,1,1,0,1,0,1,1,0,0,0
0,0,0,1,0,1,0,0,1,0,1,0,1
1,1,0,1,1,0,0,0,1,0,1,0,0
0,1,0,1,1,1,1,0,0,0,1,0,1
1,0,0,0,1,0,0,1,0,0,1,0,0
0,0,0,1,0,0,0,0,0,0,0,0,1
1,1,0,1,0,1,0,1,1,0,0,0,0
1,1,0,1,0,1,0,0,1,0,1,0,0
2,0,1,0,0,0,0,0,0,1,0,0,0
0,0,0,0,0,0,0,1,1,0,0,0,1
0,1,0,1,0,0,1,0,1,0,0,0,1
2,1,1,0,0,0,1,0,1,1,0,0,0
2,1,0,0,0,0,0,0,1,0,1,0,0
2,1,1,0,1,0,0,0,1,0,1,1,0
0,1,0,1,1,1,0,1,0,0,0,0,1
1,0,0,1,0,1,0,0,0,1,0,0,0
0,0,0,0,1,0,0,0,0,0,0,0,1
1,1,0,1,0,0,0,1,1,0,0,0,0
0,1,0,0,0,1,0,1,0,1,0,0,1
0,1,1,0,0,0,0,1,1,0,1,0,1
1,1,0,0,0,1,0,0,0,0,0,0,0
2,1,0,1,1,0,0,1,1,0,0,0,0
2,1,0,1,0,0,0,0,0,0,0,0,0
1,0,0,1,0,0,0,1,1,1,0,0,0
2,1,1,0,0,1,0,0,0,0,1,0,0
0,1,1,0,1,0,1,0,1,0,1,0,1
0,1,0,0,0,1,1,0,1,0,0,0,1
0,1,0,0,1,1,0,1,1,1,0,0,1
0,1,1,0,1,1,0,0,1,1,0,0,1
0,0,1,0,1,0,0,0,1,0,0,0,1
2,1,0,1,1,1,0,1,1,0,1,0,0
0,0,1,0,1,1,0,0,0,0,1,0,1
2,1,0,1,0,0,0,1,0,1,0,1,0
0,1,0,1,0,0,0,0,1,0,0,0,1
2,1,1,0,1,0,0,0,1,0,1,1,0
1,1,0,1,0,0,0,1,1,1,0,0,0
1,1,1,0,1,1,1,0,1,0,1,1,0
0,1,1,0,0,1,0,0,1,0,0,0,1
0,1,0,1,0,1,0,0,1,0,0,0,1
1,1,0,0,1,1,1,0,1,0,1,1,0
1,1,0,1,0,0,0,0,0,0,1,1,0
0,1,0,1,0,1,0,0,1,0,1,0,1
2,0,1,0,1,0,0,0,1,1,0,1,0
0,1,1,0,1,1,0,1,0,1,0,0,1
2,1,1,0,1,0,0,1,1,0,0,1,0
1,0,1,0,0,1,1,0,1,0,0,0,0
2,1,1,0,0,0,1,0,1,1,0,1,0
2,1,0,0,0,1,0,1,0,1,0,1,0
2,1,1,0,1,1,0,0,1,1,0,0,0
2,1,0,1,0,1,0,0,0,1,0,0,0
0,1,0,1,1,0,0,0,0,0,0,0,1
1,1,1,0,1,0,1,0,1,0,0,1,0
1,0,0,1,0,1,1,0,1,1,0,1,0
1,0,0,0,1,1,1,0,0,1,0,1,0
0,1,1,0,1,1,0,0,0,0,0,0,1
1,0,0,1,1,0,0,0,1,0,0,1,0
0,1,0,1,1,1,1,0,0,0,1,0,1
2,1,1,0,1,1,0,0,1,0,1,0,0
2,1,0,1,0,1,0,1,0,0,0,0,0
0,1,1,0,1,0,1,0,1,1,0,0,1
0,1,0,1,1,0,0,1,0,0,0,0,1
0,1,1,0,1,1,1,0,0,0,1,0,1
0,1,1,0,1,0,0,1,1,0,1,0,1
0,0,1,0,0,1,1,0,1,1,0,0,1
2,1,1,0,0,0,0,1,1,0,1,1,0
0,0,1,0,1,1,0,0,0,0,0,0,1
1,1,0,1,1,1,0,1,0,1,0,0,0
1,0,1,0,1,0,1,0,1,0,1,1,0
2,0,1,0,0,1,0,0,1,0,0,0,0
2,1,0,0,0,1,0,1,0,1,0,1,0
2,1,1,0,1,0,0,0,1,1,0,0,0
2,1,1,0,1,0,0,1,1,1,0,1,0
0,1,1,0,1,0,1,0,1,0,1,0,1
2,1,1,0,0,1,1,0,0,0,1,1,0
1,0,0,1,0,0,0,0,1,1,0,0,0
0,0,1,0,1,1,0,0,0,0,1,0,1
0,1,0,0,1,0,0,1,1,0,0,0,1
1,1,0,1,1,1,1,0,0,0,1,0,0
0,1,0,0,1,1,0,0,1,1,0,0,1
0,1,0,1,1,0,0,1,1,1,0,0,1
2,1,1,0,1,1,0,1,1,0,1,0,0
2,0,1,0,0,0,1,0,0,1,0,0,0
2,0,1,0,0,0,0,0,0,0,0,0,0
2,1,1,0,0,0,1,0,0,1,0,0,0
1,1,0,1,0,0,1,0,0,1,0,0,0
2,1,1,0,0,0,0,1,1,1,0,0,0
1,1,0,1,1,0,1,0,0,0,1,1,0
0,0,0,0,1,1,0,0,0,1,0,0,1
1,0,0,1,1,0,0,0,0,1,0,1,0
2,0,1,0,0,1,0,1,0,0,1,0,0
2,1,1,0,0,0,0,0,0,0,0,0,0
0,1,1,0,1,0,1,0,0,1,0,0,1
1,0,0,0,0,0,0,0,0,0,0,1,0
1,0,0,0,0,1,0,0,1,0,0,1,0
0,0,0,1,0,0,0,0,1,0,1,0,1
0,1,0,0,1,0,1,0,0,0,0,0,1
0,1,1,0,0,1,0,0,0,1,0,0,1
0,0,1,0,0,0,1,0,0,1,0,0,1
1,0,0,0,0,1,0,0,1,1,0,0,0
0,1,0,1,1,0,0,0,0,0,0,0,1
2,1,1,0,1,1,0,0,0,1,0,0,0
1,0,0,0,1,1,0,1,0,1,0,1,0
0,1,1,0,1,0,1,0,0,1,0,0,1
0,1,0,1,1,1,0,0,0,1,0,0,1
1,1,0,1,1,0,0,1,1,0,0,0,0
0,1,1,0,1,1,0,1,0,0,0,0,1
0,1,0,1,0,1,1,0,0,0,0,0,1
0,0,1,0,1,1,0,0,0,1,0,0,1
0,0,1,0,0,1,0,0,1,1,0,0,1
1,1,0,1,0,1,1,0,0,0,0,1,0
1,0,0,0,1,0,1,0,0,0,0,0,0
2,0,1,0,0,1,1,0,0,0,0,0,0
